G04 EAGLE Gerber X2 export*
%TF.Part,Single*%
%TF.FileFunction,Legend,Bot,1*%
%TF.FilePolarity,Positive*%
%TF.GenerationSoftware,Autodesk,EAGLE,9.6.2*%
%TF.CreationDate,2021-03-21T02:24:02Z*%
G75*
%MOIN*%
%FSLAX36Y36*%
%LPD*%
%INBottom Silkscreen*%
%AMOC8*
5,1,8,0,0,1.08239X$1,22.5*%
G01*
%ADD10C,0.003000*%


D10*
X578500Y601500D02*
X578500Y622500D01*
X572667Y622500D01*
X572514Y622498D01*
X572362Y622492D01*
X572209Y622482D01*
X572057Y622468D01*
X571906Y622450D01*
X571755Y622428D01*
X571604Y622402D01*
X571454Y622373D01*
X571305Y622339D01*
X571157Y622301D01*
X571010Y622260D01*
X570865Y622215D01*
X570720Y622165D01*
X570577Y622113D01*
X570435Y622056D01*
X570295Y621996D01*
X570156Y621932D01*
X570019Y621864D01*
X569884Y621793D01*
X569751Y621719D01*
X569619Y621640D01*
X569490Y621559D01*
X569363Y621474D01*
X569238Y621386D01*
X569116Y621295D01*
X568996Y621200D01*
X568879Y621102D01*
X568764Y621002D01*
X568652Y620898D01*
X568542Y620792D01*
X568436Y620682D01*
X568332Y620570D01*
X568232Y620455D01*
X568134Y620338D01*
X568039Y620218D01*
X567948Y620096D01*
X567860Y619971D01*
X567775Y619844D01*
X567694Y619715D01*
X567615Y619584D01*
X567541Y619450D01*
X567470Y619315D01*
X567402Y619178D01*
X567338Y619039D01*
X567278Y618899D01*
X567221Y618757D01*
X567169Y618614D01*
X567119Y618469D01*
X567074Y618324D01*
X567033Y618177D01*
X566995Y618029D01*
X566961Y617880D01*
X566932Y617730D01*
X566906Y617579D01*
X566884Y617428D01*
X566866Y617277D01*
X566852Y617125D01*
X566842Y616972D01*
X566836Y616820D01*
X566834Y616667D01*
X566836Y616514D01*
X566842Y616362D01*
X566852Y616209D01*
X566866Y616057D01*
X566884Y615906D01*
X566906Y615755D01*
X566932Y615604D01*
X566961Y615454D01*
X566995Y615305D01*
X567033Y615157D01*
X567074Y615010D01*
X567119Y614865D01*
X567169Y614720D01*
X567221Y614577D01*
X567278Y614435D01*
X567338Y614295D01*
X567402Y614156D01*
X567470Y614019D01*
X567541Y613884D01*
X567615Y613751D01*
X567694Y613619D01*
X567775Y613490D01*
X567860Y613363D01*
X567948Y613238D01*
X568039Y613116D01*
X568134Y612996D01*
X568232Y612879D01*
X568332Y612764D01*
X568436Y612652D01*
X568542Y612542D01*
X568652Y612436D01*
X568764Y612332D01*
X568879Y612232D01*
X568996Y612134D01*
X569116Y612039D01*
X569238Y611948D01*
X569363Y611860D01*
X569490Y611775D01*
X569619Y611694D01*
X569751Y611615D01*
X569884Y611541D01*
X570019Y611470D01*
X570156Y611402D01*
X570295Y611338D01*
X570435Y611278D01*
X570577Y611221D01*
X570720Y611169D01*
X570865Y611119D01*
X571010Y611074D01*
X571157Y611033D01*
X571305Y610995D01*
X571454Y610961D01*
X571604Y610932D01*
X571755Y610906D01*
X571906Y610884D01*
X572057Y610866D01*
X572209Y610852D01*
X572362Y610842D01*
X572514Y610836D01*
X572667Y610834D01*
X572667Y610833D02*
X578500Y610833D01*
X571500Y610833D02*
X566833Y601500D01*
X557078Y617833D02*
X551245Y622500D01*
X551245Y601500D01*
X557078Y601500D02*
X545412Y601500D01*
X535478Y613167D02*
X528478Y613167D01*
X528342Y613165D01*
X528207Y613159D01*
X528071Y613149D01*
X527936Y613135D01*
X527802Y613118D01*
X527668Y613096D01*
X527534Y613071D01*
X527402Y613041D01*
X527270Y613008D01*
X527139Y612971D01*
X527010Y612930D01*
X526882Y612886D01*
X526755Y612837D01*
X526629Y612785D01*
X526506Y612730D01*
X526383Y612671D01*
X526263Y612608D01*
X526145Y612542D01*
X526028Y612472D01*
X525913Y612399D01*
X525801Y612323D01*
X525691Y612244D01*
X525583Y612161D01*
X525478Y612075D01*
X525375Y611986D01*
X525275Y611895D01*
X525178Y611800D01*
X525083Y611703D01*
X524992Y611603D01*
X524903Y611500D01*
X524817Y611395D01*
X524734Y611287D01*
X524655Y611177D01*
X524579Y611065D01*
X524506Y610950D01*
X524436Y610834D01*
X524370Y610715D01*
X524307Y610595D01*
X524248Y610472D01*
X524193Y610349D01*
X524141Y610223D01*
X524092Y610096D01*
X524048Y609968D01*
X524007Y609839D01*
X523970Y609708D01*
X523937Y609576D01*
X523907Y609444D01*
X523882Y609310D01*
X523860Y609176D01*
X523843Y609042D01*
X523829Y608907D01*
X523819Y608771D01*
X523813Y608636D01*
X523811Y608500D01*
X523812Y608500D02*
X523812Y607333D01*
X523814Y607180D01*
X523820Y607028D01*
X523830Y606875D01*
X523844Y606723D01*
X523862Y606572D01*
X523884Y606421D01*
X523910Y606270D01*
X523939Y606120D01*
X523973Y605971D01*
X524011Y605823D01*
X524052Y605676D01*
X524097Y605531D01*
X524147Y605386D01*
X524199Y605243D01*
X524256Y605101D01*
X524316Y604961D01*
X524380Y604822D01*
X524448Y604685D01*
X524519Y604550D01*
X524593Y604417D01*
X524672Y604285D01*
X524753Y604156D01*
X524838Y604029D01*
X524926Y603904D01*
X525017Y603782D01*
X525112Y603662D01*
X525210Y603545D01*
X525310Y603430D01*
X525414Y603318D01*
X525520Y603208D01*
X525630Y603102D01*
X525742Y602998D01*
X525857Y602898D01*
X525974Y602800D01*
X526094Y602705D01*
X526216Y602614D01*
X526341Y602526D01*
X526468Y602441D01*
X526597Y602360D01*
X526729Y602281D01*
X526862Y602207D01*
X526997Y602136D01*
X527134Y602068D01*
X527273Y602004D01*
X527413Y601944D01*
X527555Y601887D01*
X527698Y601835D01*
X527843Y601785D01*
X527988Y601740D01*
X528135Y601699D01*
X528283Y601661D01*
X528432Y601627D01*
X528582Y601598D01*
X528733Y601572D01*
X528884Y601550D01*
X529035Y601532D01*
X529187Y601518D01*
X529340Y601508D01*
X529492Y601502D01*
X529645Y601500D01*
X529798Y601502D01*
X529950Y601508D01*
X530103Y601518D01*
X530255Y601532D01*
X530406Y601550D01*
X530557Y601572D01*
X530708Y601598D01*
X530858Y601627D01*
X531007Y601661D01*
X531155Y601699D01*
X531302Y601740D01*
X531447Y601785D01*
X531592Y601835D01*
X531735Y601887D01*
X531877Y601944D01*
X532017Y602004D01*
X532156Y602068D01*
X532293Y602136D01*
X532428Y602207D01*
X532562Y602281D01*
X532693Y602360D01*
X532822Y602441D01*
X532949Y602526D01*
X533074Y602614D01*
X533196Y602705D01*
X533316Y602800D01*
X533433Y602898D01*
X533548Y602998D01*
X533660Y603102D01*
X533770Y603208D01*
X533876Y603318D01*
X533980Y603430D01*
X534080Y603545D01*
X534178Y603662D01*
X534273Y603782D01*
X534364Y603904D01*
X534452Y604029D01*
X534537Y604156D01*
X534618Y604285D01*
X534697Y604417D01*
X534771Y604550D01*
X534842Y604685D01*
X534910Y604822D01*
X534974Y604961D01*
X535034Y605101D01*
X535091Y605243D01*
X535143Y605386D01*
X535193Y605531D01*
X535238Y605676D01*
X535279Y605823D01*
X535317Y605971D01*
X535351Y606120D01*
X535380Y606270D01*
X535406Y606421D01*
X535428Y606572D01*
X535446Y606723D01*
X535460Y606875D01*
X535470Y607028D01*
X535476Y607180D01*
X535478Y607333D01*
X535478Y613167D01*
X535479Y613167D02*
X535476Y613396D01*
X535468Y613625D01*
X535454Y613854D01*
X535434Y614082D01*
X535409Y614310D01*
X535378Y614537D01*
X535342Y614763D01*
X535300Y614988D01*
X535252Y615212D01*
X535199Y615435D01*
X535141Y615656D01*
X535077Y615876D01*
X535008Y616095D01*
X534933Y616311D01*
X534854Y616526D01*
X534769Y616739D01*
X534678Y616949D01*
X534583Y617158D01*
X534482Y617364D01*
X534377Y617567D01*
X534266Y617768D01*
X534151Y617966D01*
X534031Y618161D01*
X533906Y618353D01*
X533776Y618542D01*
X533642Y618727D01*
X533503Y618909D01*
X533360Y619088D01*
X533213Y619264D01*
X533061Y619435D01*
X532905Y619603D01*
X532745Y619767D01*
X532581Y619927D01*
X532413Y620083D01*
X532242Y620235D01*
X532067Y620382D01*
X531888Y620525D01*
X531705Y620664D01*
X531520Y620798D01*
X531331Y620928D01*
X531139Y621053D01*
X530944Y621173D01*
X530746Y621288D01*
X530545Y621399D01*
X530342Y621504D01*
X530136Y621605D01*
X529928Y621700D01*
X529717Y621790D01*
X529504Y621875D01*
X529290Y621955D01*
X529073Y622030D01*
X528855Y622099D01*
X528635Y622163D01*
X528413Y622221D01*
X528190Y622274D01*
X527966Y622322D01*
X527741Y622364D01*
X527515Y622400D01*
X527288Y622431D01*
X527060Y622456D01*
X526832Y622476D01*
X526603Y622490D01*
X526374Y622498D01*
X526145Y622501D01*
M02*
