<?xml version="1.0" encoding="utf-8"?>
<!DOCTYPE eagle SYSTEM "eagle.dtd">
<eagle version="9.3.1">
<drawing>
<settings>
<setting alwaysvectorfont="no"/>
<setting keepoldvectorfont="yes"/>
<setting verticaltext="up"/>
</settings>
<grid distance="50" unitdist="mil" unit="mil" style="lines" multiple="1" display="yes" altdistance="5" altunitdist="mil" altunit="mil"/>
<layers>
<layer number="1" name="Top" color="4" fill="1" visible="yes" active="yes"/>
<layer number="16" name="Bottom" color="1" fill="1" visible="yes" active="yes"/>
<layer number="17" name="Pads" color="2" fill="1" visible="yes" active="yes"/>
<layer number="18" name="Vias" color="2" fill="1" visible="no" active="yes"/>
<layer number="19" name="Unrouted" color="6" fill="1" visible="no" active="yes"/>
<layer number="20" name="Dimension" color="15" fill="1" visible="yes" active="yes"/>
<layer number="21" name="tPlace" color="7" fill="1" visible="yes" active="yes"/>
<layer number="22" name="bPlace" color="7" fill="1" visible="no" active="yes"/>
<layer number="23" name="tOrigins" color="15" fill="1" visible="yes" active="yes"/>
<layer number="24" name="bOrigins" color="15" fill="1" visible="no" active="yes"/>
<layer number="25" name="tNames" color="7" fill="1" visible="yes" active="yes"/>
<layer number="26" name="bNames" color="7" fill="1" visible="no" active="yes"/>
<layer number="27" name="tValues" color="7" fill="1" visible="yes" active="yes"/>
<layer number="28" name="bValues" color="7" fill="1" visible="no" active="yes"/>
<layer number="29" name="tStop" color="7" fill="3" visible="no" active="yes"/>
<layer number="30" name="bStop" color="7" fill="6" visible="no" active="yes"/>
<layer number="31" name="tCream" color="7" fill="4" visible="no" active="yes"/>
<layer number="32" name="bCream" color="7" fill="5" visible="no" active="yes"/>
<layer number="33" name="tFinish" color="6" fill="3" visible="no" active="yes"/>
<layer number="34" name="bFinish" color="6" fill="6" visible="no" active="yes"/>
<layer number="35" name="tGlue" color="7" fill="4" visible="no" active="yes"/>
<layer number="36" name="bGlue" color="7" fill="5" visible="no" active="yes"/>
<layer number="37" name="tTest" color="7" fill="1" visible="no" active="yes"/>
<layer number="38" name="bTest" color="7" fill="1" visible="no" active="yes"/>
<layer number="39" name="tKeepout" color="4" fill="11" visible="no" active="yes"/>
<layer number="40" name="bKeepout" color="1" fill="11" visible="no" active="yes"/>
<layer number="41" name="tRestrict" color="4" fill="10" visible="no" active="yes"/>
<layer number="42" name="bRestrict" color="1" fill="10" visible="no" active="yes"/>
<layer number="43" name="vRestrict" color="2" fill="10" visible="no" active="yes"/>
<layer number="44" name="Drills" color="7" fill="1" visible="no" active="yes"/>
<layer number="45" name="Holes" color="7" fill="1" visible="no" active="yes"/>
<layer number="46" name="Milling" color="3" fill="1" visible="yes" active="yes"/>
<layer number="47" name="Measures" color="7" fill="1" visible="no" active="yes"/>
<layer number="48" name="Document" color="7" fill="1" visible="no" active="yes"/>
<layer number="49" name="Reference" color="7" fill="1" visible="no" active="yes"/>
<layer number="51" name="tDocu" color="7" fill="1" visible="yes" active="yes"/>
<layer number="52" name="bDocu" color="7" fill="1" visible="no" active="yes"/>
<layer number="91" name="Nets" color="2" fill="1" visible="yes" active="yes"/>
<layer number="92" name="Busses" color="1" fill="1" visible="yes" active="yes"/>
<layer number="93" name="Pins" color="2" fill="1" visible="yes" active="yes"/>
<layer number="94" name="Symbols" color="4" fill="1" visible="yes" active="yes"/>
<layer number="95" name="Names" color="7" fill="1" visible="yes" active="yes"/>
<layer number="96" name="Values" color="7" fill="1" visible="yes" active="yes"/>
<layer number="97" name="Info" color="7" fill="1" visible="yes" active="yes"/>
<layer number="98" name="Guide" color="6" fill="1" visible="yes" active="yes"/>
<layer number="4" name="Route4" color="1" fill="4" visible="no" active="no"/>
<layer number="5" name="Route5" color="4" fill="4" visible="no" active="no"/>
<layer number="6" name="Route6" color="1" fill="8" visible="no" active="no"/>
<layer number="7" name="Route7" color="4" fill="8" visible="no" active="no"/>
<layer number="8" name="Route8" color="1" fill="2" visible="no" active="no"/>
<layer number="9" name="Route9" color="4" fill="2" visible="no" active="no"/>
<layer number="10" name="Route10" color="1" fill="7" visible="no" active="no"/>
<layer number="11" name="Route11" color="4" fill="7" visible="no" active="no"/>
<layer number="12" name="Route12" color="1" fill="5" visible="no" active="no"/>
<layer number="13" name="Route13" color="4" fill="5" visible="no" active="no"/>
<layer number="14" name="Route14" color="1" fill="6" visible="no" active="no"/>
<layer number="15" name="Route15" color="4" fill="6" visible="no" active="no"/>
<layer number="2" name="Route2" color="1" fill="3" visible="no" active="no"/>
<layer number="3" name="Route3" color="4" fill="3" visible="no" active="no"/>
</layers>
<library>
<description>&lt;b&gt;Phoenix Connectors&lt;/b&gt;&lt;p&gt;
Grid 2.54 mm&lt;p&gt;
&lt;author&gt;Created by librarian@cadsoft.de&lt;/author&gt;</description>
<packages>
<package name="11POL254" urn="urn:adsk.eagle:footprint:9315/1" locally_modified="yes">
<description>&lt;b&gt;PHOENIX CONNECTOR&lt;/b&gt;</description>
<wire x1="-14.1" y1="-2.72" x2="14.1" y2="-2.72" width="0.254" layer="21"/>
<wire x1="14.1" y1="-2.72" x2="14.1" y2="2.72" width="0.254" layer="21"/>
<wire x1="14.1" y1="2.72" x2="-14.1" y2="2.72" width="0.254" layer="21"/>
<wire x1="-14.1" y1="2.72" x2="-14.1" y2="-2.72" width="0.254" layer="21"/>
<wire x1="-13.99" y1="1.1" x2="13.99" y2="1.1" width="0.1524" layer="21"/>
<wire x1="-13.335" y1="-0.508" x2="-12.192" y2="0.635" width="0.1524" layer="51"/>
<wire x1="-10.922" y1="-0.254" x2="-9.398" y2="0.127" width="0.1524" layer="51"/>
<wire x1="-8.128" y1="0.635" x2="-7.112" y2="-0.635" width="0.1524" layer="51"/>
<wire x1="-5.842" y1="0.381" x2="-4.318" y2="-0.381" width="0.1524" layer="51"/>
<wire x1="-3.048" y1="0.635" x2="-2.032" y2="-0.635" width="0.1524" layer="51"/>
<wire x1="-0.762" y1="0.381" x2="0.762" y2="-0.381" width="0.1524" layer="51"/>
<wire x1="2.032" y1="0.635" x2="3.048" y2="-0.635" width="0.1524" layer="51"/>
<wire x1="4.445" y1="-0.508" x2="5.588" y2="0.635" width="0.1524" layer="51"/>
<wire x1="6.985" y1="-0.508" x2="8.128" y2="0.635" width="0.1524" layer="51"/>
<wire x1="9.525" y1="-0.508" x2="10.668" y2="0.635" width="0.1524" layer="51"/>
<wire x1="12.065" y1="-0.508" x2="13.208" y2="0.635" width="0.1524" layer="51"/>
<circle x="-12.7" y="0" radius="0.889" width="0.1524" layer="51"/>
<circle x="-10.16" y="0" radius="0.889" width="0.1524" layer="51"/>
<circle x="-7.62" y="0" radius="0.889" width="0.1524" layer="51"/>
<circle x="-5.08" y="0" radius="0.889" width="0.1524" layer="51"/>
<circle x="-2.54" y="0" radius="0.889" width="0.1524" layer="51"/>
<circle x="0" y="0" radius="0.889" width="0.1524" layer="51"/>
<circle x="2.54" y="0" radius="0.889" width="0.1524" layer="51"/>
<circle x="5.08" y="0" radius="0.889" width="0.1524" layer="51"/>
<circle x="7.62" y="0" radius="0.889" width="0.1524" layer="51"/>
<circle x="10.16" y="0" radius="0.889" width="0.1524" layer="51"/>
<circle x="12.7" y="0" radius="0.889" width="0.1524" layer="51"/>
<pad name="1" x="-12.7" y="0" drill="1.2" shape="long" rot="R90"/>
<pad name="2" x="-10.16" y="0" drill="1.2" shape="long" rot="R90"/>
<pad name="3" x="-7.62" y="0" drill="1.2" shape="long" rot="R90"/>
<pad name="4" x="-5.08" y="0" drill="1.2" shape="long" rot="R90"/>
<pad name="5" x="-2.54" y="0" drill="1.2" shape="long" rot="R90"/>
<pad name="6" x="0" y="0" drill="1.2" shape="long" rot="R90"/>
<pad name="7" x="2.54" y="0" drill="1.2" shape="long" rot="R90"/>
<pad name="8" x="5.08" y="0" drill="1.2" shape="long" rot="R90"/>
<pad name="9" x="7.62" y="0" drill="1.2" shape="long" rot="R90"/>
<pad name="10" x="10.16" y="0" drill="1.2" shape="long" rot="R90"/>
<pad name="11" x="12.7" y="0" drill="1.2" shape="long" rot="R90"/>
<text x="-14.224" y="3.048" size="1.27" layer="25">&gt;NAME</text>
<text x="-14.224" y="-4.318" size="1.27" layer="27">&gt;VALUE</text>
</package>
<package name="9POL254" urn="urn:adsk.eagle:footprint:9312/1" locally_modified="yes">
<description>&lt;b&gt;PHOENIX CONNECTOR&lt;/b&gt;</description>
<wire x1="-11.56" y1="-2.72" x2="11.56" y2="-2.72" width="0.254" layer="21"/>
<wire x1="11.56" y1="-2.72" x2="11.56" y2="2.72" width="0.254" layer="21"/>
<wire x1="11.56" y1="2.72" x2="-11.56" y2="2.72" width="0.254" layer="21"/>
<wire x1="-11.56" y1="2.72" x2="-11.56" y2="-2.72" width="0.254" layer="21"/>
<wire x1="-11.45" y1="1.1" x2="11.45" y2="1.1" width="0.1524" layer="21"/>
<wire x1="-10.795" y1="-0.508" x2="-9.652" y2="0.635" width="0.1524" layer="51"/>
<wire x1="-8.382" y1="-0.254" x2="-6.858" y2="0.127" width="0.1524" layer="51"/>
<wire x1="-5.588" y1="0.635" x2="-4.572" y2="-0.635" width="0.1524" layer="51"/>
<wire x1="-3.302" y1="0.381" x2="-1.778" y2="-0.381" width="0.1524" layer="51"/>
<wire x1="-0.508" y1="0.635" x2="0.508" y2="-0.635" width="0.1524" layer="51"/>
<wire x1="1.778" y1="0.381" x2="3.302" y2="-0.381" width="0.1524" layer="51"/>
<wire x1="4.572" y1="0.635" x2="5.588" y2="-0.635" width="0.1524" layer="51"/>
<wire x1="6.985" y1="-0.508" x2="8.128" y2="0.635" width="0.1524" layer="51"/>
<wire x1="9.525" y1="-0.508" x2="10.668" y2="0.635" width="0.1524" layer="51"/>
<circle x="-10.16" y="0" radius="0.889" width="0.1524" layer="51"/>
<circle x="-7.62" y="0" radius="0.889" width="0.1524" layer="51"/>
<circle x="-5.08" y="0" radius="0.889" width="0.1524" layer="51"/>
<circle x="-2.54" y="0" radius="0.889" width="0.1524" layer="51"/>
<circle x="0" y="0" radius="0.889" width="0.1524" layer="51"/>
<circle x="2.54" y="0" radius="0.889" width="0.1524" layer="51"/>
<circle x="5.08" y="0" radius="0.889" width="0.1524" layer="51"/>
<circle x="7.62" y="0" radius="0.889" width="0.1524" layer="51"/>
<circle x="10.16" y="0" radius="0.889" width="0.1524" layer="51"/>
<pad name="1" x="-10.16" y="0" drill="1.2" shape="long" rot="R90"/>
<pad name="2" x="-7.62" y="0" drill="1.2" shape="long" rot="R90"/>
<pad name="3" x="-5.08" y="0" drill="1.2" shape="long" rot="R90"/>
<pad name="4" x="-2.54" y="0" drill="1.2" shape="long" rot="R90"/>
<pad name="5" x="0" y="0" drill="1.2" shape="long" rot="R90"/>
<pad name="6" x="2.54" y="0" drill="1.2" shape="long" rot="R90"/>
<pad name="7" x="5.08" y="0" drill="1.2" shape="long" rot="R90"/>
<pad name="8" x="7.62" y="0" drill="1.2" shape="long" rot="R90"/>
<pad name="9" x="10.16" y="0" drill="1.2" shape="long" rot="R90"/>
<text x="-11.684" y="3.048" size="1.27" layer="25">&gt;NAME</text>
<text x="-11.684" y="-4.318" size="1.27" layer="27">&gt;VALUE</text>
</package>
<package name="2POL254" urn="urn:adsk.eagle:footprint:9305/1" locally_modified="yes">
<description>&lt;b&gt;PHOENIX CONNECTOR&lt;/b&gt;</description>
<wire x1="-2.67" y1="-2.72" x2="2.67" y2="-2.72" width="0.254" layer="21"/>
<wire x1="2.67" y1="-2.72" x2="2.67" y2="2.72" width="0.254" layer="21"/>
<wire x1="2.67" y1="2.72" x2="-2.67" y2="2.72" width="0.254" layer="21"/>
<wire x1="-2.67" y1="2.72" x2="-2.67" y2="-2.72" width="0.254" layer="21"/>
<wire x1="-2.56" y1="1.1" x2="2.56" y2="1.1" width="0.1524" layer="21"/>
<wire x1="-1.905" y1="-0.508" x2="-0.762" y2="0.635" width="0.1524" layer="51"/>
<wire x1="0.508" y1="-0.254" x2="2.032" y2="0.127" width="0.1524" layer="51"/>
<circle x="-1.27" y="0" radius="0.889" width="0.1524" layer="51"/>
<circle x="1.27" y="0" radius="0.889" width="0.1524" layer="51"/>
<pad name="1" x="-1.27" y="0" drill="1.2" shape="long" rot="R90"/>
<pad name="2" x="1.27" y="0" drill="1.2" shape="long" rot="R90"/>
<text x="-2.794" y="3.048" size="1.27" layer="25">&gt;NAME</text>
<text x="-2.794" y="-4.318" size="1.27" layer="27">&gt;VALUE</text>
</package>
<package name="7POL254" urn="urn:adsk.eagle:footprint:9310/1" locally_modified="yes">
<description>&lt;b&gt;PHOENIX CONNECTOR&lt;/b&gt;</description>
<wire x1="-9.02" y1="-2.72" x2="9.02" y2="-2.72" width="0.254" layer="21"/>
<wire x1="9.02" y1="-2.72" x2="9.02" y2="2.72" width="0.254" layer="21"/>
<wire x1="9.02" y1="2.72" x2="-9.02" y2="2.72" width="0.254" layer="21"/>
<wire x1="-9.02" y1="2.72" x2="-9.02" y2="-2.72" width="0.254" layer="21"/>
<wire x1="-8.91" y1="1.1" x2="8.91" y2="1.1" width="0.1524" layer="21"/>
<wire x1="-8.255" y1="-0.508" x2="-7.112" y2="0.635" width="0.1524" layer="51"/>
<wire x1="-5.842" y1="-0.254" x2="-4.318" y2="0.127" width="0.1524" layer="51"/>
<wire x1="-3.048" y1="0.635" x2="-2.032" y2="-0.635" width="0.1524" layer="51"/>
<wire x1="-0.762" y1="0.381" x2="0.762" y2="-0.381" width="0.1524" layer="51"/>
<wire x1="2.032" y1="0.635" x2="3.048" y2="-0.635" width="0.1524" layer="51"/>
<wire x1="4.318" y1="0.381" x2="5.842" y2="-0.381" width="0.1524" layer="51"/>
<wire x1="7.112" y1="0.635" x2="8.128" y2="-0.635" width="0.1524" layer="51"/>
<circle x="-7.62" y="0" radius="0.889" width="0.1524" layer="51"/>
<circle x="-5.08" y="0" radius="0.889" width="0.1524" layer="51"/>
<circle x="-2.54" y="0" radius="0.889" width="0.1524" layer="51"/>
<circle x="0" y="0" radius="0.889" width="0.1524" layer="51"/>
<circle x="2.54" y="0" radius="0.889" width="0.1524" layer="51"/>
<circle x="5.08" y="0" radius="0.889" width="0.1524" layer="51"/>
<circle x="7.62" y="0" radius="0.889" width="0.1524" layer="51"/>
<pad name="1" x="-7.62" y="0" drill="1.2" shape="long" rot="R90"/>
<pad name="2" x="-5.08" y="0" drill="1.2" shape="long" rot="R90"/>
<pad name="3" x="-2.54" y="0" drill="1.2" shape="long" rot="R90"/>
<pad name="4" x="0" y="0" drill="1.2" shape="long" rot="R90"/>
<pad name="5" x="2.54" y="0" drill="1.2" shape="long" rot="R90"/>
<pad name="6" x="5.08" y="0" drill="1.2" shape="long" rot="R90"/>
<pad name="7" x="7.62" y="0" drill="1.2" shape="long" rot="R90"/>
<text x="-9.144" y="3.048" size="1.27" layer="25">&gt;NAME</text>
<text x="-9.144" y="-4.318" size="1.27" layer="27">&gt;VALUE</text>
</package>
<package name="12POL254" urn="urn:adsk.eagle:footprint:9314/1" locally_modified="yes">
<description>&lt;b&gt;PHOENIX CONNECTOR&lt;/b&gt;</description>
<wire x1="-15.37" y1="-2.72" x2="15.37" y2="-2.72" width="0.254" layer="21"/>
<wire x1="15.37" y1="-2.72" x2="15.37" y2="2.72" width="0.254" layer="21"/>
<wire x1="15.37" y1="2.72" x2="-15.37" y2="2.72" width="0.254" layer="21"/>
<wire x1="-15.37" y1="2.72" x2="-15.37" y2="-2.72" width="0.254" layer="21"/>
<wire x1="-15.26" y1="1.1" x2="15.26" y2="1.1" width="0.1524" layer="21"/>
<wire x1="-14.605" y1="-0.508" x2="-13.462" y2="0.635" width="0.1524" layer="51"/>
<wire x1="-12.192" y1="-0.254" x2="-10.668" y2="0.127" width="0.1524" layer="51"/>
<wire x1="-9.398" y1="0.635" x2="-8.382" y2="-0.635" width="0.1524" layer="51"/>
<wire x1="-7.112" y1="0.381" x2="-5.588" y2="-0.381" width="0.1524" layer="51"/>
<wire x1="-4.318" y1="0.635" x2="-3.302" y2="-0.635" width="0.1524" layer="51"/>
<wire x1="-2.032" y1="0.381" x2="-0.508" y2="-0.381" width="0.1524" layer="51"/>
<wire x1="0.762" y1="0.635" x2="1.778" y2="-0.635" width="0.1524" layer="51"/>
<wire x1="3.175" y1="-0.508" x2="4.318" y2="0.635" width="0.1524" layer="51"/>
<wire x1="5.715" y1="-0.508" x2="6.858" y2="0.635" width="0.1524" layer="51"/>
<wire x1="8.255" y1="-0.508" x2="9.398" y2="0.635" width="0.1524" layer="51"/>
<wire x1="10.795" y1="-0.508" x2="11.938" y2="0.635" width="0.1524" layer="51"/>
<wire x1="13.335" y1="-0.508" x2="14.478" y2="0.635" width="0.1524" layer="51"/>
<circle x="-13.97" y="0" radius="0.889" width="0.1524" layer="51"/>
<circle x="-11.43" y="0" radius="0.889" width="0.1524" layer="51"/>
<circle x="-8.89" y="0" radius="0.889" width="0.1524" layer="51"/>
<circle x="-6.35" y="0" radius="0.889" width="0.1524" layer="51"/>
<circle x="-3.81" y="0" radius="0.889" width="0.1524" layer="51"/>
<circle x="-1.27" y="0" radius="0.889" width="0.1524" layer="51"/>
<circle x="1.27" y="0" radius="0.889" width="0.1524" layer="51"/>
<circle x="3.81" y="0" radius="0.889" width="0.1524" layer="51"/>
<circle x="6.35" y="0" radius="0.889" width="0.1524" layer="51"/>
<circle x="8.89" y="0" radius="0.889" width="0.1524" layer="51"/>
<circle x="11.43" y="0" radius="0.889" width="0.1524" layer="51"/>
<circle x="13.97" y="0" radius="0.889" width="0.1524" layer="51"/>
<pad name="1" x="-13.97" y="0" drill="1.2" shape="long" rot="R90"/>
<pad name="2" x="-11.43" y="0" drill="1.2" shape="long" rot="R90"/>
<pad name="3" x="-8.89" y="0" drill="1.2" shape="long" rot="R90"/>
<pad name="4" x="-6.35" y="0" drill="1.2" shape="long" rot="R90"/>
<pad name="5" x="-3.81" y="0" drill="1.2" shape="long" rot="R90"/>
<pad name="6" x="-1.27" y="0" drill="1.2" shape="long" rot="R90"/>
<pad name="7" x="1.27" y="0" drill="1.2" shape="long" rot="R90"/>
<pad name="8" x="3.81" y="0" drill="1.2" shape="long" rot="R90"/>
<pad name="9" x="6.35" y="0" drill="1.2" shape="long" rot="R90"/>
<pad name="10" x="8.89" y="0" drill="1.2" shape="long" rot="R90"/>
<pad name="11" x="11.43" y="0" drill="1.2" shape="long" rot="R90"/>
<pad name="12" x="13.97" y="0" drill="1.2" shape="long" rot="R90"/>
<text x="-15.494" y="3.048" size="1.27" layer="25">&gt;NAME</text>
<text x="-15.494" y="-4.318" size="1.27" layer="27">&gt;VALUE</text>
</package>
<package name="10POL254" urn="urn:adsk.eagle:footprint:9313/1" locally_modified="yes">
<description>&lt;b&gt;PHOENIX CONNECTOR&lt;/b&gt;</description>
<wire x1="-12.83" y1="-2.72" x2="12.83" y2="-2.72" width="0.254" layer="21"/>
<wire x1="12.83" y1="-2.72" x2="12.83" y2="2.72" width="0.254" layer="21"/>
<wire x1="12.83" y1="2.72" x2="-12.83" y2="2.72" width="0.254" layer="21"/>
<wire x1="-12.83" y1="2.72" x2="-12.83" y2="-2.72" width="0.254" layer="21"/>
<wire x1="-12.72" y1="1.1" x2="12.72" y2="1.1" width="0.1524" layer="21"/>
<wire x1="-12.065" y1="-0.508" x2="-10.922" y2="0.635" width="0.1524" layer="51"/>
<wire x1="-9.652" y1="-0.254" x2="-8.128" y2="0.127" width="0.1524" layer="51"/>
<wire x1="-6.858" y1="0.635" x2="-5.842" y2="-0.635" width="0.1524" layer="51"/>
<wire x1="-4.572" y1="0.381" x2="-3.048" y2="-0.381" width="0.1524" layer="51"/>
<wire x1="-1.778" y1="0.635" x2="-0.762" y2="-0.635" width="0.1524" layer="51"/>
<wire x1="0.508" y1="0.381" x2="2.032" y2="-0.381" width="0.1524" layer="51"/>
<wire x1="3.302" y1="0.635" x2="4.318" y2="-0.635" width="0.1524" layer="51"/>
<wire x1="5.715" y1="-0.508" x2="6.858" y2="0.635" width="0.1524" layer="51"/>
<wire x1="8.255" y1="-0.508" x2="9.398" y2="0.635" width="0.1524" layer="51"/>
<wire x1="10.795" y1="-0.508" x2="11.938" y2="0.635" width="0.1524" layer="51"/>
<circle x="-11.43" y="0" radius="0.889" width="0.1524" layer="51"/>
<circle x="-8.89" y="0" radius="0.889" width="0.1524" layer="51"/>
<circle x="-6.35" y="0" radius="0.889" width="0.1524" layer="51"/>
<circle x="-3.81" y="0" radius="0.889" width="0.1524" layer="51"/>
<circle x="-1.27" y="0" radius="0.889" width="0.1524" layer="51"/>
<circle x="1.27" y="0" radius="0.889" width="0.1524" layer="51"/>
<circle x="3.81" y="0" radius="0.889" width="0.1524" layer="51"/>
<circle x="6.35" y="0" radius="0.889" width="0.1524" layer="51"/>
<circle x="8.89" y="0" radius="0.889" width="0.1524" layer="51"/>
<circle x="11.43" y="0" radius="0.889" width="0.1524" layer="51"/>
<pad name="1" x="-11.43" y="0" drill="1.2" shape="long" rot="R90"/>
<pad name="2" x="-8.89" y="0" drill="1.2" shape="long" rot="R90"/>
<pad name="3" x="-6.35" y="0" drill="1.2" shape="long" rot="R90"/>
<pad name="4" x="-3.81" y="0" drill="1.2" shape="long" rot="R90"/>
<pad name="5" x="-1.27" y="0" drill="1.2" shape="long" rot="R90"/>
<pad name="6" x="1.27" y="0" drill="1.2" shape="long" rot="R90"/>
<pad name="7" x="3.81" y="0" drill="1.2" shape="long" rot="R90"/>
<pad name="8" x="6.35" y="0" drill="1.2" shape="long" rot="R90"/>
<pad name="9" x="8.89" y="0" drill="1.2" shape="long" rot="R90"/>
<pad name="10" x="11.43" y="0" drill="1.2" shape="long" rot="R90"/>
<text x="-12.954" y="3.048" size="1.27" layer="25">&gt;NAME</text>
<text x="-12.954" y="-4.318" size="1.27" layer="27">&gt;VALUE</text>
</package>
<package name="3POL254" urn="urn:adsk.eagle:footprint:9306/1" locally_modified="yes">
<description>&lt;b&gt;PHOENIX CONNECTOR&lt;/b&gt;</description>
<wire x1="-3.94" y1="-2.72" x2="3.94" y2="-2.72" width="0.254" layer="21"/>
<wire x1="3.94" y1="-2.72" x2="3.94" y2="2.72" width="0.254" layer="21"/>
<wire x1="3.94" y1="2.72" x2="-3.94" y2="2.72" width="0.254" layer="21"/>
<wire x1="-3.94" y1="2.72" x2="-3.94" y2="-2.72" width="0.254" layer="21"/>
<wire x1="-3.83" y1="1.1" x2="3.83" y2="1.1" width="0.1524" layer="21"/>
<wire x1="-3.175" y1="-0.508" x2="-2.032" y2="0.635" width="0.1524" layer="51"/>
<wire x1="-0.762" y1="-0.254" x2="0.762" y2="0.127" width="0.1524" layer="51"/>
<wire x1="2.032" y1="0.635" x2="3.048" y2="-0.635" width="0.1524" layer="51"/>
<circle x="-2.54" y="0" radius="0.889" width="0.1524" layer="51"/>
<circle x="0" y="0" radius="0.889" width="0.1524" layer="51"/>
<circle x="2.54" y="0" radius="0.889" width="0.1524" layer="51"/>
<pad name="1" x="-2.54" y="0" drill="1.2" shape="long" rot="R90"/>
<pad name="2" x="0" y="0" drill="1.2" shape="long" rot="R90"/>
<pad name="3" x="2.54" y="0" drill="1.2" shape="long" rot="R90"/>
<text x="-4.064" y="3.048" size="1.27" layer="25">&gt;NAME</text>
<text x="-4.064" y="-4.318" size="1.27" layer="27">&gt;VALUE</text>
</package>
<package name="6POL254" urn="urn:adsk.eagle:footprint:9309/1" locally_modified="yes">
<description>&lt;b&gt;PHOENIX CONNECTOR&lt;/b&gt;</description>
<wire x1="-7.75" y1="-2.72" x2="7.75" y2="-2.72" width="0.254" layer="21"/>
<wire x1="7.75" y1="-2.72" x2="7.75" y2="2.72" width="0.254" layer="21"/>
<wire x1="7.75" y1="2.72" x2="-7.75" y2="2.72" width="0.254" layer="21"/>
<wire x1="-7.75" y1="2.72" x2="-7.75" y2="-2.72" width="0.254" layer="21"/>
<wire x1="-7.64" y1="1.1" x2="7.64" y2="1.1" width="0.1524" layer="21"/>
<wire x1="-6.985" y1="-0.508" x2="-5.842" y2="0.635" width="0.1524" layer="51"/>
<wire x1="-4.572" y1="-0.254" x2="-3.048" y2="0.127" width="0.1524" layer="51"/>
<wire x1="-1.778" y1="0.635" x2="-0.762" y2="-0.635" width="0.1524" layer="51"/>
<wire x1="0.508" y1="0.381" x2="2.032" y2="-0.381" width="0.1524" layer="51"/>
<wire x1="3.302" y1="0.635" x2="4.318" y2="-0.635" width="0.1524" layer="51"/>
<wire x1="5.588" y1="0.381" x2="7.112" y2="-0.381" width="0.1524" layer="51"/>
<circle x="-6.35" y="0" radius="0.889" width="0.1524" layer="51"/>
<circle x="-3.81" y="0" radius="0.889" width="0.1524" layer="51"/>
<circle x="-1.27" y="0" radius="0.889" width="0.1524" layer="51"/>
<circle x="1.27" y="0" radius="0.889" width="0.1524" layer="51"/>
<circle x="3.81" y="0" radius="0.889" width="0.1524" layer="51"/>
<circle x="6.35" y="0" radius="0.889" width="0.1524" layer="51"/>
<pad name="1" x="-6.35" y="0" drill="1.2" diameter="1.778" shape="long" rot="R90"/>
<pad name="2" x="-3.81" y="0" drill="1.2" diameter="1.778" shape="long" rot="R90"/>
<pad name="3" x="-1.27" y="0" drill="1.2" diameter="1.778" shape="long" rot="R90"/>
<pad name="4" x="1.27" y="0" drill="1.2" diameter="1.778" shape="long" rot="R90"/>
<pad name="5" x="3.81" y="0" drill="1.2" diameter="1.778" shape="long" rot="R90"/>
<pad name="6" x="6.35" y="0" drill="1.2" diameter="1.778" shape="long" rot="R90"/>
<text x="-7.874" y="3.048" size="1.27" layer="25">&gt;NAME</text>
<text x="-7.874" y="-4.318" size="1.27" layer="27">&gt;VALUE</text>
</package>
<package name="5POL254" urn="urn:adsk.eagle:footprint:9308/1" locally_modified="yes">
<description>&lt;b&gt;PHOENIX CONNECTOR&lt;/b&gt;</description>
<wire x1="-6.48" y1="-2.72" x2="6.48" y2="-2.72" width="0.254" layer="21"/>
<wire x1="6.48" y1="-2.72" x2="6.48" y2="2.72" width="0.254" layer="21"/>
<wire x1="6.48" y1="2.72" x2="-6.48" y2="2.72" width="0.254" layer="21"/>
<wire x1="-6.48" y1="2.72" x2="-6.48" y2="-2.72" width="0.254" layer="21"/>
<wire x1="-6.37" y1="1.1" x2="6.37" y2="1.1" width="0.1524" layer="21"/>
<wire x1="-5.715" y1="-0.508" x2="-4.572" y2="0.635" width="0.1524" layer="51"/>
<wire x1="-3.302" y1="-0.254" x2="-1.778" y2="0.127" width="0.1524" layer="51"/>
<wire x1="-0.508" y1="0.635" x2="0.508" y2="-0.635" width="0.1524" layer="51"/>
<wire x1="1.778" y1="0.381" x2="3.302" y2="-0.381" width="0.1524" layer="51"/>
<wire x1="4.318" y1="-0.254" x2="5.842" y2="0.127" width="0.1524" layer="51"/>
<circle x="-5.08" y="0" radius="0.889" width="0.1524" layer="51"/>
<circle x="-2.54" y="0" radius="0.889" width="0.1524" layer="51"/>
<circle x="0" y="0" radius="0.889" width="0.1524" layer="51"/>
<circle x="2.54" y="0" radius="0.889" width="0.1524" layer="51"/>
<circle x="5.08" y="0" radius="0.889" width="0.1524" layer="51"/>
<pad name="1" x="-5.08" y="0" drill="1.2" shape="long" rot="R90"/>
<pad name="2" x="-2.54" y="0" drill="1.2" shape="long" rot="R90"/>
<pad name="3" x="0" y="0" drill="1.2" shape="long" rot="R90"/>
<pad name="4" x="2.54" y="0" drill="1.2" shape="long" rot="R90"/>
<pad name="5" x="5.08" y="0" drill="1.2" shape="long" rot="R90"/>
<text x="-6.604" y="3.048" size="1.27" layer="25">&gt;NAME</text>
<text x="-6.604" y="-4.318" size="1.27" layer="27">&gt;VALUE</text>
</package>
<package name="4POL254" urn="urn:adsk.eagle:footprint:9307/1" locally_modified="yes">
<description>&lt;b&gt;PHOENIX CONNECTOR&lt;/b&gt;</description>
<wire x1="-5.21" y1="-2.72" x2="5.21" y2="-2.72" width="0.254" layer="21"/>
<wire x1="5.21" y1="-2.72" x2="5.21" y2="2.72" width="0.254" layer="21"/>
<wire x1="5.21" y1="2.72" x2="-5.21" y2="2.72" width="0.254" layer="21"/>
<wire x1="-5.21" y1="2.72" x2="-5.21" y2="-2.72" width="0.254" layer="21"/>
<wire x1="-5.1" y1="1.1" x2="5.1" y2="1.1" width="0.1524" layer="21"/>
<wire x1="-4.445" y1="-0.508" x2="-3.302" y2="0.635" width="0.1524" layer="51"/>
<wire x1="-2.032" y1="-0.254" x2="-0.508" y2="0.127" width="0.1524" layer="51"/>
<wire x1="0.762" y1="0.635" x2="1.778" y2="-0.635" width="0.1524" layer="51"/>
<wire x1="3.048" y1="0.381" x2="4.572" y2="-0.381" width="0.1524" layer="51"/>
<circle x="-3.81" y="0" radius="0.889" width="0.1524" layer="51"/>
<circle x="-1.27" y="0" radius="0.889" width="0.1524" layer="51"/>
<circle x="1.27" y="0" radius="0.889" width="0.1524" layer="51"/>
<circle x="3.81" y="0" radius="0.889" width="0.1524" layer="51"/>
<pad name="1" x="-3.81" y="0" drill="1.2" shape="long" rot="R90"/>
<pad name="2" x="-1.27" y="0" drill="1.2" shape="long" rot="R90"/>
<pad name="3" x="1.27" y="0" drill="1.2" shape="long" rot="R90"/>
<pad name="4" x="3.81" y="0" drill="1.2" shape="long" rot="R90"/>
<text x="-5.334" y="3.048" size="1.27" layer="25">&gt;NAME</text>
<text x="-5.334" y="-4.318" size="1.27" layer="27">&gt;VALUE</text>
</package>
<package name="8POL254" urn="urn:adsk.eagle:footprint:9311/1" locally_modified="yes">
<description>&lt;b&gt;PHOENIX CONNECTOR&lt;/b&gt;</description>
<wire x1="-10.29" y1="-2.72" x2="10.29" y2="-2.72" width="0.254" layer="21"/>
<wire x1="10.29" y1="-2.72" x2="10.29" y2="2.72" width="0.254" layer="21"/>
<wire x1="10.29" y1="2.72" x2="-10.29" y2="2.72" width="0.254" layer="21"/>
<wire x1="-10.29" y1="2.72" x2="-10.29" y2="-2.72" width="0.254" layer="21"/>
<wire x1="-10.18" y1="1.1" x2="10.18" y2="1.1" width="0.1524" layer="21"/>
<wire x1="-9.525" y1="-0.508" x2="-8.382" y2="0.635" width="0.1524" layer="51"/>
<wire x1="-7.112" y1="-0.254" x2="-5.588" y2="0.127" width="0.1524" layer="51"/>
<wire x1="-4.318" y1="0.635" x2="-3.302" y2="-0.635" width="0.1524" layer="51"/>
<wire x1="-2.032" y1="0.381" x2="-0.508" y2="-0.381" width="0.1524" layer="51"/>
<wire x1="0.762" y1="0.635" x2="1.778" y2="-0.635" width="0.1524" layer="51"/>
<wire x1="3.048" y1="0.381" x2="4.572" y2="-0.381" width="0.1524" layer="51"/>
<wire x1="5.842" y1="0.635" x2="6.858" y2="-0.635" width="0.1524" layer="51"/>
<wire x1="8.255" y1="-0.508" x2="9.398" y2="0.635" width="0.1524" layer="51"/>
<circle x="-8.89" y="0" radius="0.889" width="0.1524" layer="51"/>
<circle x="-6.35" y="0" radius="0.889" width="0.1524" layer="51"/>
<circle x="-3.81" y="0" radius="0.889" width="0.1524" layer="51"/>
<circle x="-1.27" y="0" radius="0.889" width="0.1524" layer="51"/>
<circle x="1.27" y="0" radius="0.889" width="0.1524" layer="51"/>
<circle x="3.81" y="0" radius="0.889" width="0.1524" layer="51"/>
<circle x="6.35" y="0" radius="0.889" width="0.1524" layer="51"/>
<circle x="8.89" y="0" radius="0.889" width="0.1524" layer="51"/>
<pad name="1" x="-8.89" y="0" drill="1.2" shape="long" rot="R90"/>
<pad name="2" x="-6.35" y="0" drill="1.2" shape="long" rot="R90"/>
<pad name="3" x="-3.81" y="0" drill="1.2" shape="long" rot="R90"/>
<pad name="4" x="-1.27" y="0" drill="1.2" shape="long" rot="R90"/>
<pad name="5" x="1.27" y="0" drill="1.2" shape="long" rot="R90"/>
<pad name="6" x="3.81" y="0" drill="1.2" shape="long" rot="R90"/>
<pad name="7" x="6.35" y="0" drill="1.2" shape="long" rot="R90"/>
<pad name="8" x="8.89" y="0" drill="1.2" shape="long" rot="R90"/>
<text x="-10.414" y="3.048" size="1.27" layer="25">&gt;NAME</text>
<text x="-10.414" y="-4.318" size="1.27" layer="27">&gt;VALUE</text>
</package>
</packages>
<packages3d>
<package3d name="9POL254" urn="urn:adsk.eagle:package:9319/1" locally_modified="yes" type="box">
<description>PHOENIX CONNECTOR</description>
<packageinstances>
<packageinstance name="9POL254"/>
</packageinstances>
</package3d>
<package3d name="3POL254" urn="urn:adsk.eagle:package:9316/1" locally_modified="yes" type="box">
<description>PHOENIX CONNECTOR</description>
<packageinstances>
<packageinstance name="3POL254"/>
</packageinstances>
</package3d>
<package3d name="2POL254" urn="urn:adsk.eagle:package:9320/1" locally_modified="yes" type="box">
<description>PHOENIX CONNECTOR</description>
<packageinstances>
<packageinstance name="2POL254"/>
</packageinstances>
</package3d>
<package3d name="10POL254" urn="urn:adsk.eagle:package:9322/1" locally_modified="yes" type="box">
<description>PHOENIX CONNECTOR</description>
<packageinstances>
<packageinstance name="10POL254"/>
</packageinstances>
</package3d>
<package3d name="7POL254" urn="urn:adsk.eagle:package:9321/1" locally_modified="yes" type="box">
<description>PHOENIX CONNECTOR</description>
<packageinstances>
<packageinstance name="7POL254"/>
</packageinstances>
</package3d>
<package3d name="8POL254" urn="urn:adsk.eagle:package:9329/1" locally_modified="yes" type="box">
<description>PHOENIX CONNECTOR</description>
<packageinstances>
<packageinstance name="8POL254"/>
</packageinstances>
</package3d>
<package3d name="12POL254" urn="urn:adsk.eagle:package:9323/1" locally_modified="yes" type="box">
<description>PHOENIX CONNECTOR</description>
<packageinstances>
<packageinstance name="12POL254"/>
</packageinstances>
</package3d>
<package3d name="4POL254" urn="urn:adsk.eagle:package:9326/1" locally_modified="yes" type="box">
<description>PHOENIX CONNECTOR</description>
<packageinstances>
<packageinstance name="4POL254"/>
</packageinstances>
</package3d>
<package3d name="5POL254" urn="urn:adsk.eagle:package:9317/1" locally_modified="yes" type="box">
<description>PHOENIX CONNECTOR</description>
<packageinstances>
<packageinstance name="5POL254"/>
</packageinstances>
</package3d>
<package3d name="6POL254" urn="urn:adsk.eagle:package:9318/1" locally_modified="yes" type="box">
<description>PHOENIX CONNECTOR</description>
<packageinstances>
<packageinstance name="6POL254"/>
</packageinstances>
</package3d>
</packages3d>
<symbols>
<symbol name="SKBV" urn="urn:adsk.eagle:symbol:9304/1">
<wire x1="2.032" y1="0.762" x2="0.508" y2="-0.762" width="0.254" layer="94"/>
<circle x="1.27" y="0" radius="1.27" width="0.254" layer="94"/>
<text x="3.556" y="-0.635" size="1.778" layer="95">&gt;NAME</text>
<text x="-1.016" y="-3.302" size="1.778" layer="96">&gt;VALUE</text>
<pin name="1" x="-2.54" y="0" visible="pad" length="short" direction="pas"/>
</symbol>
<symbol name="SKB" urn="urn:adsk.eagle:symbol:9303/1">
<wire x1="2.032" y1="0.762" x2="0.508" y2="-0.762" width="0.254" layer="94"/>
<circle x="1.27" y="0" radius="1.27" width="0.254" layer="94"/>
<text x="3.556" y="-0.635" size="1.778" layer="95">&gt;NAME</text>
<pin name="1" x="-2.54" y="0" visible="pad" length="short" direction="pas"/>
</symbol>
</symbols>
<devicesets>
<deviceset name="MPT9" urn="urn:adsk.eagle:component:9327/1" locally_modified="yes" prefix="X" uservalue="yes">
<description>&lt;b&gt;PHOENIX CONNECTOR&lt;/b&gt;</description>
<gates>
<gate name="-1" symbol="SKB" x="2.54" y="12.7" addlevel="always"/>
<gate name="-2" symbol="SKB" x="2.54" y="7.62" addlevel="always"/>
<gate name="-3" symbol="SKB" x="2.54" y="2.54" addlevel="always"/>
<gate name="-4" symbol="SKB" x="2.54" y="-2.54" addlevel="always"/>
<gate name="-5" symbol="SKB" x="2.54" y="-7.62" addlevel="always"/>
<gate name="-6" symbol="SKB" x="25.4" y="12.7" addlevel="always"/>
<gate name="-7" symbol="SKB" x="25.4" y="7.62" addlevel="always"/>
<gate name="-8" symbol="SKB" x="25.4" y="2.54" addlevel="always"/>
<gate name="-9" symbol="SKBV" x="25.4" y="-2.54" addlevel="always"/>
</gates>
<devices>
<device name="" package="9POL254">
<connects>
<connect gate="-1" pin="1" pad="1"/>
<connect gate="-2" pin="1" pad="2"/>
<connect gate="-3" pin="1" pad="3"/>
<connect gate="-4" pin="1" pad="4"/>
<connect gate="-5" pin="1" pad="5"/>
<connect gate="-6" pin="1" pad="6"/>
<connect gate="-7" pin="1" pad="7"/>
<connect gate="-8" pin="1" pad="8"/>
<connect gate="-9" pin="1" pad="9"/>
</connects>
<package3dinstances>
<package3dinstance package3d_urn="urn:adsk.eagle:package:9319/1"/>
</package3dinstances>
<technologies>
<technology name="">
<attribute name="MF" value="" constant="no"/>
<attribute name="MPN" value="" constant="no"/>
<attribute name="OC_FARNELL" value="unknown" constant="no"/>
<attribute name="OC_NEWARK" value="unknown" constant="no"/>
</technology>
</technologies>
</device>
</devices>
</deviceset>
<deviceset name="MPT12" urn="urn:adsk.eagle:component:9332/1" locally_modified="yes" prefix="X" uservalue="yes">
<description>&lt;b&gt;PHOENIX CONNECTOR&lt;/b&gt;</description>
<gates>
<gate name="-1" symbol="SKB" x="2.54" y="17.78" addlevel="always"/>
<gate name="-2" symbol="SKB" x="2.54" y="12.7" addlevel="always"/>
<gate name="-3" symbol="SKB" x="2.54" y="7.62" addlevel="always"/>
<gate name="-4" symbol="SKB" x="2.54" y="2.54" addlevel="always"/>
<gate name="-5" symbol="SKB" x="2.54" y="-2.54" addlevel="always"/>
<gate name="-6" symbol="SKB" x="2.54" y="-7.62" addlevel="always"/>
<gate name="-7" symbol="SKB" x="25.4" y="17.78" addlevel="always"/>
<gate name="-8" symbol="SKB" x="25.4" y="12.7" addlevel="always"/>
<gate name="-9" symbol="SKB" x="25.4" y="7.62" addlevel="always"/>
<gate name="-10" symbol="SKB" x="25.4" y="2.54" addlevel="always"/>
<gate name="-11" symbol="SKB" x="25.4" y="-2.54" addlevel="always"/>
<gate name="-12" symbol="SKBV" x="25.4" y="-7.62" addlevel="always"/>
</gates>
<devices>
<device name="" package="12POL254">
<connects>
<connect gate="-1" pin="1" pad="1"/>
<connect gate="-10" pin="1" pad="10"/>
<connect gate="-11" pin="1" pad="11"/>
<connect gate="-12" pin="1" pad="12"/>
<connect gate="-2" pin="1" pad="2"/>
<connect gate="-3" pin="1" pad="3"/>
<connect gate="-4" pin="1" pad="4"/>
<connect gate="-5" pin="1" pad="5"/>
<connect gate="-6" pin="1" pad="6"/>
<connect gate="-7" pin="1" pad="7"/>
<connect gate="-8" pin="1" pad="8"/>
<connect gate="-9" pin="1" pad="9"/>
</connects>
<package3dinstances>
<package3dinstance package3d_urn="urn:adsk.eagle:package:9323/1"/>
</package3dinstances>
<technologies>
<technology name="">
<attribute name="MF" value="" constant="no"/>
<attribute name="MPN" value="" constant="no"/>
<attribute name="OC_FARNELL" value="unknown" constant="no"/>
<attribute name="OC_NEWARK" value="unknown" constant="no"/>
</technology>
</technologies>
</device>
</devices>
</deviceset>
<deviceset name="MPT7" urn="urn:adsk.eagle:component:9331/1" locally_modified="yes" prefix="X" uservalue="yes">
<description>&lt;b&gt;PHOENIX CONNECTOR&lt;/b&gt;</description>
<gates>
<gate name="-1" symbol="SKB" x="0" y="17.78" addlevel="always"/>
<gate name="-2" symbol="SKB" x="0" y="12.7" addlevel="always"/>
<gate name="-3" symbol="SKB" x="0" y="7.62" addlevel="always"/>
<gate name="-4" symbol="SKB" x="0" y="2.54" addlevel="always"/>
<gate name="-5" symbol="SKB" x="0" y="-2.54" addlevel="always"/>
<gate name="-6" symbol="SKB" x="0" y="-7.62" addlevel="always"/>
<gate name="-7" symbol="SKBV" x="0" y="-12.7" addlevel="always"/>
</gates>
<devices>
<device name="" package="7POL254">
<connects>
<connect gate="-1" pin="1" pad="1"/>
<connect gate="-2" pin="1" pad="2"/>
<connect gate="-3" pin="1" pad="3"/>
<connect gate="-4" pin="1" pad="4"/>
<connect gate="-5" pin="1" pad="5"/>
<connect gate="-6" pin="1" pad="6"/>
<connect gate="-7" pin="1" pad="7"/>
</connects>
<package3dinstances>
<package3dinstance package3d_urn="urn:adsk.eagle:package:9321/1"/>
</package3dinstances>
<technologies>
<technology name="">
<attribute name="MF" value="" constant="no"/>
<attribute name="MPN" value="" constant="no"/>
<attribute name="OC_FARNELL" value="unknown" constant="no"/>
<attribute name="OC_NEWARK" value="unknown" constant="no"/>
</technology>
</technologies>
</device>
</devices>
</deviceset>
<deviceset name="MPT10" urn="urn:adsk.eagle:component:9330/1" locally_modified="yes" prefix="X" uservalue="yes">
<description>&lt;b&gt;PHOENIX CONNECTOR&lt;/b&gt;</description>
<gates>
<gate name="-1" symbol="SKB" x="0" y="7.62" addlevel="always"/>
<gate name="-2" symbol="SKB" x="0" y="2.54" addlevel="always"/>
<gate name="-3" symbol="SKB" x="0" y="-2.54" addlevel="always"/>
<gate name="-4" symbol="SKB" x="0" y="-7.62" addlevel="always"/>
<gate name="-5" symbol="SKB" x="0" y="-12.7" addlevel="always"/>
<gate name="-6" symbol="SKB" x="22.86" y="7.62" addlevel="always"/>
<gate name="-7" symbol="SKB" x="22.86" y="2.54" addlevel="always"/>
<gate name="-8" symbol="SKB" x="22.86" y="-2.54" addlevel="always"/>
<gate name="-9" symbol="SKB" x="22.86" y="-7.62" addlevel="always"/>
<gate name="-10" symbol="SKBV" x="22.86" y="-12.7" addlevel="always"/>
</gates>
<devices>
<device name="" package="10POL254">
<connects>
<connect gate="-1" pin="1" pad="1"/>
<connect gate="-10" pin="1" pad="10"/>
<connect gate="-2" pin="1" pad="2"/>
<connect gate="-3" pin="1" pad="3"/>
<connect gate="-4" pin="1" pad="4"/>
<connect gate="-5" pin="1" pad="5"/>
<connect gate="-6" pin="1" pad="6"/>
<connect gate="-7" pin="1" pad="7"/>
<connect gate="-8" pin="1" pad="8"/>
<connect gate="-9" pin="1" pad="9"/>
</connects>
<package3dinstances>
<package3dinstance package3d_urn="urn:adsk.eagle:package:9322/1"/>
</package3dinstances>
<technologies>
<technology name="">
<attribute name="MF" value="" constant="no"/>
<attribute name="MPN" value="" constant="no"/>
<attribute name="OC_FARNELL" value="unknown" constant="no"/>
<attribute name="OC_NEWARK" value="unknown" constant="no"/>
</technology>
</technologies>
</device>
</devices>
</deviceset>
<deviceset name="MPT2" urn="urn:adsk.eagle:component:9328/1" locally_modified="yes" prefix="X" uservalue="yes">
<description>&lt;b&gt;PHOENIX CONNECTOR&lt;/b&gt;</description>
<gates>
<gate name="-1" symbol="SKB" x="0" y="0" addlevel="always"/>
<gate name="-2" symbol="SKBV" x="0" y="-5.08" addlevel="always"/>
</gates>
<devices>
<device name="" package="2POL254">
<connects>
<connect gate="-1" pin="1" pad="1"/>
<connect gate="-2" pin="1" pad="2"/>
</connects>
<package3dinstances>
<package3dinstance package3d_urn="urn:adsk.eagle:package:9320/1"/>
</package3dinstances>
<technologies>
<technology name="">
<attribute name="MF" value="" constant="no"/>
<attribute name="MPN" value="" constant="no"/>
<attribute name="OC_FARNELL" value="unknown" constant="no"/>
<attribute name="OC_NEWARK" value="unknown" constant="no"/>
</technology>
</technologies>
</device>
</devices>
</deviceset>
<deviceset name="MPT3" urn="urn:adsk.eagle:component:9324/1" locally_modified="yes" prefix="X" uservalue="yes">
<description>&lt;b&gt;PHOENIX CONNECTOR&lt;/b&gt;</description>
<gates>
<gate name="-1" symbol="SKB" x="0" y="5.08" addlevel="always"/>
<gate name="-2" symbol="SKB" x="0" y="0" addlevel="always"/>
<gate name="-3" symbol="SKBV" x="0" y="-5.08" addlevel="always"/>
</gates>
<devices>
<device name="" package="3POL254">
<connects>
<connect gate="-1" pin="1" pad="1"/>
<connect gate="-2" pin="1" pad="2"/>
<connect gate="-3" pin="1" pad="3"/>
</connects>
<package3dinstances>
<package3dinstance package3d_urn="urn:adsk.eagle:package:9316/1"/>
</package3dinstances>
<technologies>
<technology name="">
<attribute name="MF" value="" constant="no"/>
<attribute name="MPN" value="" constant="no"/>
<attribute name="OC_FARNELL" value="unknown" constant="no"/>
<attribute name="OC_NEWARK" value="unknown" constant="no"/>
</technology>
</technologies>
</device>
</devices>
</deviceset>
<deviceset name="MPT6" urn="urn:adsk.eagle:component:9325/1" locally_modified="yes" prefix="X" uservalue="yes">
<description>&lt;b&gt;PHOENIX CONNECTOR&lt;/b&gt;</description>
<gates>
<gate name="-1" symbol="SKB" x="0" y="10.16" addlevel="always"/>
<gate name="-2" symbol="SKB" x="0" y="5.08" addlevel="always"/>
<gate name="-3" symbol="SKB" x="0" y="0" addlevel="always"/>
<gate name="-4" symbol="SKB" x="0" y="-5.08" addlevel="always"/>
<gate name="-5" symbol="SKB" x="0" y="-10.16" addlevel="always"/>
<gate name="-6" symbol="SKBV" x="0" y="-15.24" addlevel="always"/>
</gates>
<devices>
<device name="" package="6POL254">
<connects>
<connect gate="-1" pin="1" pad="1"/>
<connect gate="-2" pin="1" pad="2"/>
<connect gate="-3" pin="1" pad="3"/>
<connect gate="-4" pin="1" pad="4"/>
<connect gate="-5" pin="1" pad="5"/>
<connect gate="-6" pin="1" pad="6"/>
</connects>
<package3dinstances>
<package3dinstance package3d_urn="urn:adsk.eagle:package:9318/1"/>
</package3dinstances>
<technologies>
<technology name="">
<attribute name="MF" value="" constant="no"/>
<attribute name="MPN" value="" constant="no"/>
<attribute name="OC_FARNELL" value="unknown" constant="no"/>
<attribute name="OC_NEWARK" value="unknown" constant="no"/>
</technology>
</technologies>
</device>
</devices>
</deviceset>
<deviceset name="MPT4" urn="urn:adsk.eagle:component:9333/1" locally_modified="yes" prefix="X" uservalue="yes">
<description>&lt;b&gt;PHOENIX CONNECTOR&lt;/b&gt;</description>
<gates>
<gate name="-1" symbol="SKB" x="0" y="10.16" addlevel="always"/>
<gate name="-2" symbol="SKB" x="0" y="5.08" addlevel="always"/>
<gate name="-3" symbol="SKB" x="0" y="0" addlevel="always"/>
<gate name="-4" symbol="SKBV" x="0" y="-5.08" addlevel="always"/>
</gates>
<devices>
<device name="" package="4POL254">
<connects>
<connect gate="-1" pin="1" pad="1"/>
<connect gate="-2" pin="1" pad="2"/>
<connect gate="-3" pin="1" pad="3"/>
<connect gate="-4" pin="1" pad="4"/>
</connects>
<package3dinstances>
<package3dinstance package3d_urn="urn:adsk.eagle:package:9326/1"/>
</package3dinstances>
<technologies>
<technology name="">
<attribute name="MF" value="" constant="no"/>
<attribute name="MPN" value="" constant="no"/>
<attribute name="OC_FARNELL" value="unknown" constant="no"/>
<attribute name="OC_NEWARK" value="unknown" constant="no"/>
</technology>
</technologies>
</device>
</devices>
</deviceset>
<deviceset name="MPT5" urn="urn:adsk.eagle:component:9334/1" locally_modified="yes" prefix="X" uservalue="yes">
<description>&lt;b&gt;PHOENIX CONNECTOR&lt;/b&gt;</description>
<gates>
<gate name="-1" symbol="SKB" x="0" y="12.7" addlevel="always"/>
<gate name="-2" symbol="SKB" x="0" y="7.62" addlevel="always"/>
<gate name="-3" symbol="SKB" x="0" y="2.54" addlevel="always"/>
<gate name="-4" symbol="SKB" x="0" y="-2.54" addlevel="always"/>
<gate name="-5" symbol="SKBV" x="0" y="-7.62" addlevel="always"/>
</gates>
<devices>
<device name="" package="5POL254">
<connects>
<connect gate="-1" pin="1" pad="1"/>
<connect gate="-2" pin="1" pad="2"/>
<connect gate="-3" pin="1" pad="3"/>
<connect gate="-4" pin="1" pad="4"/>
<connect gate="-5" pin="1" pad="5"/>
</connects>
<package3dinstances>
<package3dinstance package3d_urn="urn:adsk.eagle:package:9317/1"/>
</package3dinstances>
<technologies>
<technology name="">
<attribute name="MF" value="" constant="no"/>
<attribute name="MPN" value="" constant="no"/>
<attribute name="OC_FARNELL" value="unknown" constant="no"/>
<attribute name="OC_NEWARK" value="unknown" constant="no"/>
</technology>
</technologies>
</device>
</devices>
</deviceset>
<deviceset name="MPT8" urn="urn:adsk.eagle:component:9335/1" locally_modified="yes" prefix="X" uservalue="yes">
<description>&lt;b&gt;PHOENIX CONNECTOR&lt;/b&gt;</description>
<gates>
<gate name="-1" symbol="SKB" x="0" y="12.7" addlevel="always"/>
<gate name="-2" symbol="SKB" x="0" y="7.62" addlevel="always"/>
<gate name="-3" symbol="SKB" x="0" y="2.54" addlevel="always"/>
<gate name="-4" symbol="SKB" x="0" y="-2.54" addlevel="always"/>
<gate name="-5" symbol="SKB" x="22.86" y="12.7" addlevel="always"/>
<gate name="-6" symbol="SKB" x="22.86" y="7.62" addlevel="always"/>
<gate name="-7" symbol="SKB" x="22.86" y="2.54" addlevel="always"/>
<gate name="-8" symbol="SKBV" x="22.86" y="-2.54" addlevel="always"/>
</gates>
<devices>
<device name="" package="8POL254">
<connects>
<connect gate="-1" pin="1" pad="1"/>
<connect gate="-2" pin="1" pad="2"/>
<connect gate="-3" pin="1" pad="3"/>
<connect gate="-4" pin="1" pad="4"/>
<connect gate="-5" pin="1" pad="5"/>
<connect gate="-6" pin="1" pad="6"/>
<connect gate="-7" pin="1" pad="7"/>
<connect gate="-8" pin="1" pad="8"/>
</connects>
<package3dinstances>
<package3dinstance package3d_urn="urn:adsk.eagle:package:9329/1"/>
</package3dinstances>
<technologies>
<technology name="">
<attribute name="MF" value="" constant="no"/>
<attribute name="MPN" value="" constant="no"/>
<attribute name="OC_FARNELL" value="unknown" constant="no"/>
<attribute name="OC_NEWARK" value="unknown" constant="no"/>
</technology>
</technologies>
</device>
</devices>
</deviceset>
</devicesets>
</library>
</drawing>
<compatibility>
<note version="8.3" severity="warning">
Since Version 8.3, EAGLE supports URNs for individual library
assets (packages, symbols, and devices). The URNs of those assets
will not be understood (or retained) with this version.
</note>
<note version="8.3" severity="warning">
Since Version 8.3, EAGLE supports the association of 3D packages
with devices in libraries, schematics, and board files. Those 3D
packages will not be understood (or retained) with this version.
</note>
</compatibility>
</eagle>
