<?xml version="1.0" encoding="utf-8"?>
<!DOCTYPE eagle SYSTEM "eagle.dtd">
<eagle version="9.4.2">
<drawing>
<settings>
<setting alwaysvectorfont="yes"/>
<setting verticaltext="up"/>
</settings>
<grid distance="100" unitdist="mil" unit="mil" style="dots" multiple="1" display="yes" altdistance="25" altunitdist="mil" altunit="mil"/>
<layers>
<layer number="1" name="Top" color="4" fill="1" visible="yes" active="yes"/>
<layer number="2" name="Route2" color="16" fill="1" visible="no" active="no"/>
<layer number="3" name="Route3" color="17" fill="1" visible="no" active="no"/>
<layer number="4" name="Route4" color="18" fill="1" visible="no" active="no"/>
<layer number="5" name="Route5" color="19" fill="1" visible="no" active="no"/>
<layer number="6" name="Route6" color="25" fill="1" visible="no" active="no"/>
<layer number="7" name="Route7" color="26" fill="1" visible="no" active="no"/>
<layer number="8" name="Route8" color="27" fill="1" visible="no" active="no"/>
<layer number="9" name="Route9" color="28" fill="1" visible="no" active="no"/>
<layer number="10" name="Route10" color="29" fill="1" visible="no" active="no"/>
<layer number="11" name="Route11" color="30" fill="1" visible="no" active="no"/>
<layer number="12" name="Route12" color="20" fill="1" visible="no" active="no"/>
<layer number="13" name="Route13" color="21" fill="1" visible="no" active="no"/>
<layer number="14" name="Route14" color="22" fill="1" visible="no" active="no"/>
<layer number="15" name="Route15" color="23" fill="1" visible="no" active="no"/>
<layer number="16" name="Bottom" color="1" fill="1" visible="yes" active="yes"/>
<layer number="17" name="Pads" color="2" fill="1" visible="yes" active="yes"/>
<layer number="18" name="Vias" color="2" fill="1" visible="yes" active="yes"/>
<layer number="19" name="Unrouted" color="6" fill="1" visible="yes" active="yes"/>
<layer number="20" name="Dimension" color="24" fill="1" visible="yes" active="yes"/>
<layer number="21" name="tPlace" color="7" fill="1" visible="yes" active="yes"/>
<layer number="22" name="bPlace" color="7" fill="1" visible="yes" active="yes"/>
<layer number="23" name="tOrigins" color="15" fill="1" visible="yes" active="yes"/>
<layer number="24" name="bOrigins" color="15" fill="1" visible="yes" active="yes"/>
<layer number="25" name="tNames" color="7" fill="1" visible="yes" active="yes"/>
<layer number="26" name="bNames" color="7" fill="1" visible="yes" active="yes"/>
<layer number="27" name="tValues" color="7" fill="1" visible="no" active="yes"/>
<layer number="28" name="bValues" color="7" fill="1" visible="no" active="yes"/>
<layer number="29" name="tStop" color="7" fill="3" visible="no" active="yes"/>
<layer number="30" name="bStop" color="7" fill="6" visible="no" active="yes"/>
<layer number="31" name="tCream" color="7" fill="4" visible="no" active="yes"/>
<layer number="32" name="bCream" color="7" fill="5" visible="no" active="yes"/>
<layer number="33" name="tFinish" color="6" fill="3" visible="no" active="yes"/>
<layer number="34" name="bFinish" color="6" fill="6" visible="no" active="yes"/>
<layer number="35" name="tGlue" color="7" fill="4" visible="no" active="yes"/>
<layer number="36" name="bGlue" color="7" fill="5" visible="no" active="yes"/>
<layer number="37" name="tTest" color="7" fill="1" visible="no" active="yes"/>
<layer number="38" name="bTest" color="7" fill="1" visible="no" active="yes"/>
<layer number="39" name="tKeepout" color="4" fill="11" visible="yes" active="yes"/>
<layer number="40" name="bKeepout" color="1" fill="11" visible="yes" active="yes"/>
<layer number="41" name="tRestrict" color="4" fill="10" visible="yes" active="yes"/>
<layer number="42" name="bRestrict" color="1" fill="10" visible="yes" active="yes"/>
<layer number="43" name="vRestrict" color="2" fill="10" visible="yes" active="yes"/>
<layer number="44" name="Drills" color="7" fill="1" visible="no" active="yes"/>
<layer number="45" name="Holes" color="7" fill="1" visible="yes" active="yes"/>
<layer number="46" name="Milling" color="3" fill="1" visible="yes" active="yes"/>
<layer number="47" name="Measures" color="7" fill="1" visible="no" active="yes"/>
<layer number="48" name="Document" color="7" fill="1" visible="yes" active="yes"/>
<layer number="49" name="Reference" color="7" fill="1" visible="yes" active="yes"/>
<layer number="50" name="dxf" color="7" fill="1" visible="no" active="no"/>
<layer number="51" name="tDocu" color="7" fill="1" visible="yes" active="yes"/>
<layer number="52" name="bDocu" color="7" fill="1" visible="yes" active="yes"/>
<layer number="53" name="tGND_GNDA" color="7" fill="9" visible="no" active="no"/>
<layer number="54" name="bGND_GNDA" color="1" fill="9" visible="no" active="no"/>
<layer number="56" name="wert" color="7" fill="1" visible="no" active="no"/>
<layer number="57" name="tCAD" color="7" fill="1" visible="no" active="no"/>
<layer number="59" name="tCarbon" color="7" fill="1" visible="no" active="no"/>
<layer number="60" name="bCarbon" color="7" fill="1" visible="no" active="no"/>
<layer number="88" name="SimResults" color="9" fill="1" visible="no" active="no"/>
<layer number="89" name="SimProbes" color="9" fill="1" visible="no" active="no"/>
<layer number="90" name="Modules" color="5" fill="1" visible="no" active="no"/>
<layer number="91" name="Nets" color="2" fill="1" visible="no" active="no"/>
<layer number="92" name="Busses" color="1" fill="1" visible="no" active="no"/>
<layer number="93" name="Pins" color="2" fill="1" visible="no" active="no"/>
<layer number="94" name="Symbols" color="4" fill="1" visible="no" active="no"/>
<layer number="95" name="Names" color="7" fill="1" visible="no" active="no"/>
<layer number="96" name="Values" color="7" fill="1" visible="no" active="no"/>
<layer number="97" name="Info" color="7" fill="1" visible="no" active="no"/>
<layer number="98" name="Guide" color="6" fill="1" visible="no" active="no"/>
<layer number="99" name="SpiceOrder" color="7" fill="1" visible="no" active="no"/>
<layer number="100" name="Muster" color="7" fill="1" visible="no" active="no"/>
<layer number="101" name="Patch_Top" color="12" fill="4" visible="no" active="yes"/>
<layer number="102" name="Vscore" color="7" fill="1" visible="no" active="yes"/>
<layer number="103" name="tMap" color="7" fill="1" visible="no" active="yes"/>
<layer number="104" name="Name" color="16" fill="1" visible="no" active="yes"/>
<layer number="105" name="tPlate" color="7" fill="1" visible="no" active="yes"/>
<layer number="106" name="bPlate" color="7" fill="1" visible="no" active="yes"/>
<layer number="107" name="Crop" color="7" fill="1" visible="no" active="yes"/>
<layer number="108" name="tplace-old" color="10" fill="1" visible="no" active="yes"/>
<layer number="109" name="ref-old" color="11" fill="1" visible="no" active="yes"/>
<layer number="110" name="fp0" color="7" fill="1" visible="no" active="yes"/>
<layer number="111" name="LPC17xx" color="7" fill="1" visible="no" active="yes"/>
<layer number="112" name="tSilk" color="7" fill="1" visible="no" active="yes"/>
<layer number="113" name="IDFDebug" color="4" fill="1" visible="no" active="yes"/>
<layer number="114" name="Badge_Outline" color="7" fill="1" visible="no" active="yes"/>
<layer number="115" name="ReferenceISLANDS" color="7" fill="1" visible="no" active="yes"/>
<layer number="116" name="Patch_BOT" color="9" fill="4" visible="no" active="yes"/>
<layer number="118" name="Rect_Pads" color="7" fill="1" visible="no" active="yes"/>
<layer number="121" name="_tsilk" color="7" fill="1" visible="no" active="yes"/>
<layer number="122" name="_bsilk" color="7" fill="1" visible="no" active="yes"/>
<layer number="123" name="tTestmark" color="7" fill="1" visible="no" active="yes"/>
<layer number="124" name="bTestmark" color="7" fill="1" visible="no" active="yes"/>
<layer number="125" name="_tNames" color="7" fill="1" visible="no" active="yes"/>
<layer number="126" name="_bNames" color="7" fill="1" visible="no" active="yes"/>
<layer number="127" name="_tValues" color="7" fill="1" visible="no" active="yes"/>
<layer number="128" name="_bValues" color="7" fill="1" visible="no" active="yes"/>
<layer number="129" name="Mask" color="7" fill="1" visible="no" active="yes"/>
<layer number="131" name="tAdjust" color="7" fill="1" visible="no" active="yes"/>
<layer number="132" name="bAdjust" color="7" fill="1" visible="no" active="yes"/>
<layer number="144" name="Drill_legend" color="7" fill="1" visible="no" active="yes"/>
<layer number="150" name="Notes" color="7" fill="1" visible="no" active="yes"/>
<layer number="151" name="HeatSink" color="7" fill="1" visible="no" active="yes"/>
<layer number="152" name="_bDocu" color="7" fill="1" visible="no" active="yes"/>
<layer number="153" name="FabDoc1" color="7" fill="1" visible="no" active="yes"/>
<layer number="154" name="FabDoc2" color="7" fill="1" visible="no" active="yes"/>
<layer number="155" name="FabDoc3" color="7" fill="1" visible="no" active="yes"/>
<layer number="199" name="Contour" color="7" fill="1" visible="no" active="yes"/>
<layer number="200" name="200bmp" color="1" fill="10" visible="no" active="yes"/>
<layer number="201" name="201bmp" color="2" fill="10" visible="no" active="yes"/>
<layer number="202" name="202bmp" color="3" fill="10" visible="no" active="yes"/>
<layer number="203" name="203bmp" color="4" fill="10" visible="no" active="yes"/>
<layer number="204" name="204bmp" color="5" fill="10" visible="no" active="yes"/>
<layer number="205" name="205bmp" color="6" fill="10" visible="no" active="yes"/>
<layer number="206" name="206bmp" color="7" fill="10" visible="no" active="yes"/>
<layer number="207" name="207bmp" color="8" fill="10" visible="no" active="yes"/>
<layer number="208" name="208bmp" color="9" fill="10" visible="no" active="yes"/>
<layer number="209" name="209bmp" color="7" fill="1" visible="no" active="yes"/>
<layer number="210" name="210bmp" color="7" fill="1" visible="no" active="yes"/>
<layer number="211" name="211bmp" color="7" fill="1" visible="no" active="yes"/>
<layer number="212" name="212bmp" color="7" fill="1" visible="no" active="yes"/>
<layer number="213" name="213bmp" color="7" fill="1" visible="no" active="yes"/>
<layer number="214" name="214bmp" color="7" fill="1" visible="no" active="yes"/>
<layer number="215" name="215bmp" color="7" fill="1" visible="no" active="yes"/>
<layer number="216" name="216bmp" color="7" fill="1" visible="no" active="yes"/>
<layer number="217" name="217bmp" color="18" fill="1" visible="no" active="no"/>
<layer number="218" name="218bmp" color="19" fill="1" visible="no" active="no"/>
<layer number="219" name="219bmp" color="20" fill="1" visible="no" active="no"/>
<layer number="220" name="220bmp" color="21" fill="1" visible="no" active="no"/>
<layer number="221" name="221bmp" color="22" fill="1" visible="no" active="no"/>
<layer number="222" name="222bmp" color="23" fill="1" visible="no" active="no"/>
<layer number="223" name="223bmp" color="24" fill="1" visible="no" active="no"/>
<layer number="224" name="224bmp" color="25" fill="1" visible="no" active="no"/>
<layer number="225" name="225bmp" color="7" fill="1" visible="no" active="yes"/>
<layer number="226" name="226bmp" color="7" fill="1" visible="no" active="yes"/>
<layer number="227" name="227bmp" color="7" fill="1" visible="no" active="yes"/>
<layer number="228" name="228bmp" color="7" fill="1" visible="no" active="yes"/>
<layer number="229" name="229bmp" color="7" fill="1" visible="no" active="yes"/>
<layer number="230" name="230bmp" color="7" fill="1" visible="no" active="yes"/>
<layer number="231" name="231bmp" color="7" fill="1" visible="no" active="yes"/>
<layer number="248" name="Housing" color="7" fill="1" visible="no" active="yes"/>
<layer number="249" name="Edge" color="7" fill="1" visible="no" active="yes"/>
<layer number="250" name="Descript" color="3" fill="1" visible="no" active="no"/>
<layer number="251" name="SMDround" color="12" fill="11" visible="no" active="no"/>
<layer number="254" name="cooling" color="7" fill="1" visible="no" active="yes"/>
<layer number="255" name="routoute" color="7" fill="1" visible="no" active="yes"/>
</layers>
<board>
<plain>
<wire x1="0" y1="3.81" x2="0" y2="67.31" width="0.254" layer="20" locked="yes"/>
<wire x1="0" y1="67.31" x2="3.81" y2="71.12" width="0.254" layer="20" curve="-90" locked="yes"/>
<wire x1="3.81" y1="71.12" x2="105.41" y2="71.12" width="0.254" layer="20" locked="yes"/>
<wire x1="105.41" y1="71.12" x2="109.22" y2="67.31" width="0.254" layer="20" curve="-90" locked="yes"/>
<wire x1="109.22" y1="67.31" x2="109.22" y2="3.81" width="0.254" layer="20" locked="yes"/>
<wire x1="109.22" y1="3.81" x2="105.41" y2="0" width="0.254" layer="20" curve="-90" locked="yes"/>
<wire x1="105.41" y1="0" x2="3.81" y2="0" width="0.254" layer="20" locked="yes"/>
<wire x1="3.81" y1="0" x2="0" y2="3.81" width="0.254" layer="20" curve="-90" locked="yes"/>
<hole x="3.81" y="3.81" drill="3.556" locked="yes"/>
<hole x="105.41" y="3.81" drill="3.556" locked="yes"/>
<hole x="105.41" y="67.31" drill="3.556" locked="yes"/>
<hole x="3.81" y="67.31" drill="3.556" locked="yes"/>
<wire x1="3.81" y1="3.81" x2="3.81" y2="35.56" width="0.254" layer="47" style="dashdot"/>
<wire x1="3.81" y1="35.56" x2="3.81" y2="67.31" width="0.254" layer="47" style="dashdot"/>
<wire x1="3.81" y1="67.31" x2="105.41" y2="67.31" width="0.254" layer="47" style="dashdot"/>
<wire x1="105.41" y1="67.31" x2="105.41" y2="35.56" width="0.254" layer="47" style="dashdot"/>
<wire x1="105.41" y1="35.56" x2="105.41" y2="3.81" width="0.254" layer="47" style="dashdot"/>
<wire x1="105.41" y1="3.81" x2="3.81" y2="3.81" width="0.254" layer="47" style="dashdot"/>
<dimension x1="0" y1="0" x2="109.22" y2="0" x3="54.61" y3="-20.955" textsize="1.778" layer="47" unit="mil"/>
<dimension x1="109.22" y1="0" x2="109.22" y2="71.12" x3="136.525" y3="35.56" textsize="1.778" layer="47" unit="mil"/>
<dimension x1="3.81" y1="67.31" x2="3.81" y2="3.81" x3="-18.415" y3="35.56" textsize="1.778" layer="47" unit="mil"/>
<dimension x1="3.81" y1="67.31" x2="105.41" y2="67.31" x3="54.61" y3="78.74" textsize="1.778" layer="47" unit="mil"/>
<wire x1="3.81" y1="35.56" x2="105.41" y2="35.56" width="0.254" layer="47" style="dashdot"/>
<wire x1="6.52618125" y1="51.435" x2="6.52618125" y2="19.685" width="0.254" layer="47" style="dashdot"/>
<dimension x1="6.52618125" y1="51.435" x2="25.57618125" y2="51.435" x3="16.05118125" y3="73.66" textsize="1.778" layer="47" unit="mil"/>
<wire x1="25.57618125" y1="51.435" x2="25.57618125" y2="19.685" width="0.254" layer="47" style="dashdot"/>
<wire x1="6.52618125" y1="51.435" x2="25.57618125" y2="51.435" width="0.254" layer="47" style="dashdot"/>
<wire x1="25.57618125" y1="19.685" x2="6.52618125" y2="19.685" width="0.254" layer="47" style="dashdot"/>
<dimension x1="6.52618125" y1="51.435" x2="3.81" y2="35.56" x3="-8.89" y3="43.4975" textsize="1.778" layer="47" dtype="vertical" unit="mil"/>
<dimension x1="6.52618125" y1="51.435" x2="6.52618125" y2="19.685" x3="-13.97" y3="35.56" textsize="1.778" layer="47" dtype="vertical" unit="mil"/>
<wire x1="83.64381875" y1="51.435" x2="83.64381875" y2="19.685" width="0.254" layer="47" style="dashdot"/>
<wire x1="102.69381875" y1="51.435" x2="102.69381875" y2="19.685" width="0.254" layer="47" style="dashdot"/>
<wire x1="83.64381875" y1="51.435" x2="102.69381875" y2="51.435" width="0.254" layer="47" style="dashdot"/>
<wire x1="102.69381875" y1="19.685" x2="83.64381875" y2="19.685" width="0.254" layer="47" style="dashdot"/>
<wire x1="25.57618125" y1="51.435" x2="83.64381875" y2="51.435" width="0.254" layer="47" style="dashdot"/>
<wire x1="83.64381875" y1="19.685" x2="25.57618125" y2="19.685" width="0.254" layer="47" style="dashdot"/>
<dimension x1="83.64381875" y1="51.435" x2="102.69381875" y2="51.435" x3="93.16881875" y3="73.66" textsize="1.778" layer="47" dtype="horizontal" unit="mil"/>
<wire x1="-2.99881875" y1="56.261" x2="-2.99881875" y2="14.859" width="0.254" layer="47" style="shortdash"/>
<wire x1="-2.99881875" y1="14.859" x2="0" y2="14.859" width="0.254" layer="47" style="shortdash"/>
<wire x1="0" y1="14.859" x2="0" y2="56.261" width="0.254" layer="47" style="shortdash"/>
<wire x1="0" y1="56.261" x2="-2.99881875" y2="56.261" width="0.254" layer="47" style="shortdash"/>
<dimension x1="-2.99881875" y1="56.261" x2="-2.99881875" y2="14.859" x3="-7.44381875" y3="35.56" textsize="1.778" layer="47" dtype="vertical" unit="mil"/>
<wire x1="0" y1="14.568265625" x2="40.386" y2="14.568265625" width="0.254" layer="47" style="longdash"/>
<wire x1="40.386" y1="14.568265625" x2="40.386" y2="33.060984375" width="0.254" layer="47" style="longdash"/>
<wire x1="40.386" y1="33.060984375" x2="40.386" y2="38.059015625" width="0.254" layer="47" style="longdash"/>
<wire x1="40.386" y1="38.059015625" x2="40.386" y2="56.551734375" width="0.254" layer="47" style="longdash"/>
<wire x1="40.386" y1="56.551734375" x2="0" y2="56.551734375" width="0.254" layer="47" style="longdash"/>
<wire x1="0" y1="56.551734375" x2="0" y2="14.568265625" width="0.254" layer="47" style="longdash"/>
<wire x1="112.21881875" y1="56.261" x2="112.21881875" y2="14.859" width="0.254" layer="47" style="shortdash"/>
<wire x1="109.22" y1="56.261" x2="109.22" y2="14.859" width="0.254" layer="47" style="shortdash"/>
<wire x1="109.22" y1="56.261" x2="112.21881875" y2="56.261" width="0.254" layer="47" style="shortdash"/>
<wire x1="109.22" y1="14.859" x2="112.21881875" y2="14.859" width="0.254" layer="47" style="shortdash"/>
<wire x1="109.22" y1="14.568265625" x2="109.22" y2="56.551734375" width="0.254" layer="47" style="longdash"/>
<wire x1="68.834" y1="14.568265625" x2="68.834" y2="33.060984375" width="0.254" layer="47" style="longdash"/>
<wire x1="68.834" y1="33.060984375" x2="68.834" y2="38.059015625" width="0.254" layer="47" style="longdash"/>
<wire x1="68.834" y1="38.059015625" x2="68.834" y2="56.551734375" width="0.254" layer="47" style="longdash"/>
<wire x1="109.22" y1="56.551734375" x2="68.834" y2="56.551734375" width="0.254" layer="47" style="longdash"/>
<wire x1="68.834" y1="14.568265625" x2="109.22" y2="14.568265625" width="0.254" layer="47" style="longdash"/>
<wire x1="53.9496" y1="33.060984375" x2="53.9496" y2="38.059015625" width="0.254" layer="47" style="longdash"/>
<wire x1="55.2704" y1="33.060984375" x2="55.2704" y2="38.059015625" width="0.254" layer="47" style="longdash"/>
<wire x1="68.834" y1="38.059015625" x2="55.2704" y2="38.059015625" width="0.254" layer="47" style="longdash"/>
<wire x1="40.386" y1="38.059015625" x2="53.9496" y2="38.059015625" width="0.254" layer="47" style="longdash"/>
<wire x1="40.386" y1="33.060984375" x2="53.9496" y2="33.060984375" width="0.254" layer="47" style="longdash"/>
<wire x1="68.834" y1="33.060984375" x2="55.2704" y2="33.060984375" width="0.254" layer="47" style="longdash"/>
<dimension x1="-2.99881875" y1="14.859" x2="6.52618125" y2="19.685" x3="1.76368125" y3="-8.99645625" textsize="1.778" layer="47" dtype="horizontal" unit="mil"/>
<wire x1="65.405" y1="25.4" x2="43.815" y2="25.4" width="0.1524" layer="21"/>
<wire x1="43.815" y1="25.4" x2="41.275" y2="27.94" width="0.1524" layer="21" curve="-90"/>
<wire x1="41.275" y1="27.94" x2="41.275" y2="43.18" width="0.1524" layer="21"/>
<wire x1="41.275" y1="43.18" x2="43.815" y2="45.72" width="0.1524" layer="21" curve="-90"/>
<wire x1="43.815" y1="45.72" x2="65.405" y2="45.72" width="0.1524" layer="21"/>
<wire x1="65.405" y1="45.72" x2="67.945" y2="43.18" width="0.1524" layer="21" curve="-90"/>
<wire x1="67.945" y1="43.18" x2="67.945" y2="27.94" width="0.1524" layer="21"/>
<wire x1="67.945" y1="27.94" x2="65.405" y2="25.4" width="0.1524" layer="21" curve="-90"/>
<hole x="43.815" y="43.18" drill="2.8"/>
<hole x="43.815" y="27.94" drill="2.8"/>
<hole x="65.405" y="27.94" drill="2.8"/>
<hole x="65.405" y="43.18" drill="2.8"/>
<wire x1="43.815" y1="43.18" x2="65.405" y2="43.18" width="0.1524" layer="51" style="dashdot"/>
<wire x1="65.405" y1="43.18" x2="65.405" y2="27.94" width="0.1524" layer="51" style="dashdot"/>
<wire x1="65.405" y1="27.94" x2="43.815" y2="27.94" width="0.1524" layer="51" style="dashdot"/>
<wire x1="43.815" y1="27.94" x2="43.815" y2="43.18" width="0.1524" layer="51" style="dashdot"/>
<dimension x1="54.61" y1="44.45" x2="54.61" y2="26.67" x3="74.93" y3="35.56" textsize="1.778" layer="51" dtype="vertical" unit="mil"/>
<wire x1="86.36" y1="35.56" x2="81.28" y2="30.48" width="0.254" layer="20" curve="-90" locked="yes"/>
<wire x1="81.28" y1="30.48" x2="27.94" y2="30.48" width="0.254" layer="20" locked="yes"/>
<wire x1="27.94" y1="30.48" x2="22.86" y2="35.56" width="0.254" layer="20" curve="-90" locked="yes"/>
<wire x1="22.86" y1="35.56" x2="27.94" y2="40.64" width="0.254" layer="20" curve="-90" locked="yes"/>
<wire x1="27.94" y1="40.64" x2="81.28" y2="40.64" width="0.254" layer="20" locked="yes"/>
<wire x1="81.28" y1="40.64" x2="86.36" y2="35.56" width="0.254" layer="20" curve="-90" locked="yes"/>
<circle x="15.24" y="30.48" radius="6.35" width="0.3048" layer="21"/>
<wire x1="15.24" y1="30.48" x2="16.33985" y2="29.844996875" width="0.3048" layer="21"/>
<wire x1="20.739259375" y1="27.304996875" x2="19.63940625" y2="27.939996875" width="0.3048" layer="21"/>
<wire x1="19.63940625" y1="27.939996875" x2="18.53955625" y2="28.574996875" width="0.3048" layer="21" curve="-180"/>
<wire x1="18.53955625" y1="28.574996875" x2="17.439703125" y2="29.209996875" width="0.3048" layer="21" curve="-180"/>
<wire x1="17.439703125" y1="29.209996875" x2="16.33985" y2="29.844996875" width="0.3048" layer="21" curve="-180"/>
<wire x1="15.24" y1="30.48" x2="15.24" y2="31.75" width="0.3048" layer="21"/>
<wire x1="15.24" y1="36.83" x2="15.24" y2="35.56" width="0.3048" layer="21"/>
<wire x1="15.24" y1="35.56" x2="15.24" y2="34.29" width="0.3048" layer="21" curve="-180"/>
<wire x1="15.24" y1="34.29" x2="15.24" y2="33.02" width="0.3048" layer="21" curve="-180"/>
<wire x1="15.24" y1="33.02" x2="15.24" y2="31.75" width="0.3048" layer="21" curve="-180"/>
<wire x1="15.24" y1="30.48" x2="14.140146875" y2="29.845" width="0.3048" layer="21"/>
<wire x1="9.7407375" y1="27.305" x2="10.840590625" y2="27.94" width="0.3048" layer="21"/>
<wire x1="10.840590625" y1="27.94" x2="11.940440625" y2="28.575" width="0.3048" layer="21" curve="-180"/>
<wire x1="11.940440625" y1="28.575" x2="13.04029375" y2="29.21" width="0.3048" layer="21" curve="-180"/>
<wire x1="13.04029375" y1="29.21" x2="14.140146875" y2="29.845" width="0.3048" layer="21" curve="-180"/>
<wire x1="11.38440625" y1="47.318078125" x2="2.585590625" y2="42.238078125" width="0.3048" layer="21"/>
<wire x1="2.585590625" y1="42.238078125" x2="8.935590625" y2="31.23955625" width="0.3048" layer="21"/>
<wire x1="17.73440625" y1="36.31955625" x2="11.38440625" y2="47.318078125" width="0.3048" layer="21"/>
<circle x="93.98" y="40.64" radius="6.35" width="0.3048" layer="21"/>
<wire x1="93.98" y1="40.64" x2="92.88015" y2="41.275003125" width="0.3048" layer="21"/>
<wire x1="88.480740625" y1="43.815003125" x2="89.58059375" y2="43.180003125" width="0.3048" layer="21"/>
<wire x1="89.58059375" y1="43.180003125" x2="90.68044375" y2="42.545003125" width="0.3048" layer="21" curve="-180"/>
<wire x1="90.68044375" y1="42.545003125" x2="91.780296875" y2="41.910003125" width="0.3048" layer="21" curve="-180"/>
<wire x1="91.780296875" y1="41.910003125" x2="92.88015" y2="41.275003125" width="0.3048" layer="21" curve="-180"/>
<wire x1="93.98" y1="40.64" x2="93.98" y2="39.37" width="0.3048" layer="21"/>
<wire x1="93.98" y1="34.29" x2="93.98" y2="35.56" width="0.3048" layer="21"/>
<wire x1="93.98" y1="35.56" x2="93.98" y2="36.83" width="0.3048" layer="21" curve="-180"/>
<wire x1="93.98" y1="36.83" x2="93.98" y2="38.1" width="0.3048" layer="21" curve="-180"/>
<wire x1="93.98" y1="38.1" x2="93.98" y2="39.37" width="0.3048" layer="21" curve="-180"/>
<wire x1="93.98" y1="40.64" x2="95.079853125" y2="41.275" width="0.3048" layer="21"/>
<wire x1="99.4792625" y1="43.815" x2="98.379409375" y2="43.18" width="0.3048" layer="21"/>
<wire x1="98.379409375" y1="43.18" x2="97.279559375" y2="42.545" width="0.3048" layer="21" curve="-180"/>
<wire x1="97.279559375" y1="42.545" x2="96.17970625" y2="41.91" width="0.3048" layer="21" curve="-180"/>
<wire x1="96.17970625" y1="41.91" x2="95.079853125" y2="41.275" width="0.3048" layer="21" curve="-180"/>
<wire x1="97.83559375" y1="23.801921875" x2="106.634409375" y2="28.881921875" width="0.3048" layer="21"/>
<wire x1="106.634409375" y1="28.881921875" x2="100.284409375" y2="39.88044375" width="0.3048" layer="21"/>
<wire x1="91.48559375" y1="34.80044375" x2="97.83559375" y2="23.801921875" width="0.3048" layer="21"/>
<wire x1="7.62" y1="24.13" x2="22.86" y2="24.13" width="0.3048" layer="21"/>
<wire x1="101.6" y1="46.99" x2="86.36" y2="46.99" width="0.3048" layer="21"/>
<wire x1="20.32" y1="25.4" x2="22.86" y2="27.94" width="0.3048" layer="21"/>
<wire x1="21.59" y1="25.4" x2="25.4" y2="27.94" width="0.3048" layer="21"/>
<wire x1="22.86" y1="25.4" x2="26.67" y2="26.67" width="0.3048" layer="21"/>
<wire x1="88.9" y1="45.72" x2="86.36" y2="43.18" width="0.3048" layer="21"/>
<wire x1="87.63" y1="45.72" x2="83.82" y2="43.18" width="0.3048" layer="21"/>
<wire x1="86.36" y1="45.72" x2="82.55" y2="44.45" width="0.3048" layer="21"/>
<text x="54.61" y="41.275" size="1.778" layer="26" ratio="12" rot="MR0" align="bottom-center">JLCJLCJLCJLC</text>
</plain>
<libraries>
<library name="pinhead" urn="urn:adsk.eagle:library:325">
<description>&lt;b&gt;Pin Header Connectors&lt;/b&gt;&lt;p&gt;
&lt;author&gt;Created by librarian@cadsoft.de&lt;/author&gt;</description>
<packages>
<package name="1X04" urn="urn:adsk.eagle:footprint:22258/1" library_version="3">
<description>&lt;b&gt;PIN HEADER&lt;/b&gt;</description>
<wire x1="0" y1="0.635" x2="0.635" y2="1.27" width="0.1524" layer="21"/>
<wire x1="0.635" y1="1.27" x2="1.905" y2="1.27" width="0.1524" layer="21"/>
<wire x1="1.905" y1="1.27" x2="2.54" y2="0.635" width="0.1524" layer="21"/>
<wire x1="2.54" y1="0.635" x2="2.54" y2="-0.635" width="0.1524" layer="21"/>
<wire x1="2.54" y1="-0.635" x2="1.905" y2="-1.27" width="0.1524" layer="21"/>
<wire x1="1.905" y1="-1.27" x2="0.635" y2="-1.27" width="0.1524" layer="21"/>
<wire x1="0.635" y1="-1.27" x2="0" y2="-0.635" width="0.1524" layer="21"/>
<wire x1="-4.445" y1="1.27" x2="-3.175" y2="1.27" width="0.1524" layer="21"/>
<wire x1="-3.175" y1="1.27" x2="-2.54" y2="0.635" width="0.1524" layer="21"/>
<wire x1="-2.54" y1="0.635" x2="-2.54" y2="-0.635" width="0.1524" layer="21"/>
<wire x1="-2.54" y1="-0.635" x2="-3.175" y2="-1.27" width="0.1524" layer="21"/>
<wire x1="-2.54" y1="0.635" x2="-1.905" y2="1.27" width="0.1524" layer="21"/>
<wire x1="-1.905" y1="1.27" x2="-0.635" y2="1.27" width="0.1524" layer="21"/>
<wire x1="-0.635" y1="1.27" x2="0" y2="0.635" width="0.1524" layer="21"/>
<wire x1="0" y1="0.635" x2="0" y2="-0.635" width="0.1524" layer="21"/>
<wire x1="0" y1="-0.635" x2="-0.635" y2="-1.27" width="0.1524" layer="21"/>
<wire x1="-0.635" y1="-1.27" x2="-1.905" y2="-1.27" width="0.1524" layer="21"/>
<wire x1="-1.905" y1="-1.27" x2="-2.54" y2="-0.635" width="0.1524" layer="21"/>
<wire x1="-5.08" y1="0.635" x2="-5.08" y2="-0.635" width="0.1524" layer="21"/>
<wire x1="-4.445" y1="1.27" x2="-5.08" y2="0.635" width="0.1524" layer="21"/>
<wire x1="-5.08" y1="-0.635" x2="-4.445" y2="-1.27" width="0.1524" layer="21"/>
<wire x1="-3.175" y1="-1.27" x2="-4.445" y2="-1.27" width="0.1524" layer="21"/>
<wire x1="3.175" y1="1.27" x2="4.445" y2="1.27" width="0.1524" layer="21"/>
<wire x1="4.445" y1="1.27" x2="5.08" y2="0.635" width="0.1524" layer="21"/>
<wire x1="5.08" y1="0.635" x2="5.08" y2="-0.635" width="0.1524" layer="21"/>
<wire x1="5.08" y1="-0.635" x2="4.445" y2="-1.27" width="0.1524" layer="21"/>
<wire x1="3.175" y1="1.27" x2="2.54" y2="0.635" width="0.1524" layer="21"/>
<wire x1="2.54" y1="-0.635" x2="3.175" y2="-1.27" width="0.1524" layer="21"/>
<wire x1="4.445" y1="-1.27" x2="3.175" y2="-1.27" width="0.1524" layer="21"/>
<pad name="1" x="-3.81" y="0" drill="1.016" shape="long" rot="R90"/>
<pad name="2" x="-1.27" y="0" drill="1.016" shape="long" rot="R90"/>
<pad name="3" x="1.27" y="0" drill="1.016" shape="long" rot="R90"/>
<pad name="4" x="3.81" y="0" drill="1.016" shape="long" rot="R90"/>
<text x="-5.1562" y="1.8288" size="1.27" layer="25" ratio="10">&gt;NAME</text>
<text x="-5.08" y="-3.175" size="1.27" layer="27">&gt;VALUE</text>
<rectangle x1="1.016" y1="-0.254" x2="1.524" y2="0.254" layer="51"/>
<rectangle x1="-1.524" y1="-0.254" x2="-1.016" y2="0.254" layer="51"/>
<rectangle x1="-4.064" y1="-0.254" x2="-3.556" y2="0.254" layer="51"/>
<rectangle x1="3.556" y1="-0.254" x2="4.064" y2="0.254" layer="51"/>
</package>
<package name="1X06" urn="urn:adsk.eagle:footprint:22361/1" library_version="3">
<description>&lt;b&gt;PIN HEADER&lt;/b&gt;</description>
<wire x1="0.635" y1="1.27" x2="1.905" y2="1.27" width="0.1524" layer="21"/>
<wire x1="1.905" y1="1.27" x2="2.54" y2="0.635" width="0.1524" layer="21"/>
<wire x1="2.54" y1="0.635" x2="2.54" y2="-0.635" width="0.1524" layer="21"/>
<wire x1="2.54" y1="-0.635" x2="1.905" y2="-1.27" width="0.1524" layer="21"/>
<wire x1="2.54" y1="0.635" x2="3.175" y2="1.27" width="0.1524" layer="21"/>
<wire x1="3.175" y1="1.27" x2="4.445" y2="1.27" width="0.1524" layer="21"/>
<wire x1="4.445" y1="1.27" x2="5.08" y2="0.635" width="0.1524" layer="21"/>
<wire x1="5.08" y1="0.635" x2="5.08" y2="-0.635" width="0.1524" layer="21"/>
<wire x1="5.08" y1="-0.635" x2="4.445" y2="-1.27" width="0.1524" layer="21"/>
<wire x1="4.445" y1="-1.27" x2="3.175" y2="-1.27" width="0.1524" layer="21"/>
<wire x1="3.175" y1="-1.27" x2="2.54" y2="-0.635" width="0.1524" layer="21"/>
<wire x1="-2.54" y1="0.635" x2="-1.905" y2="1.27" width="0.1524" layer="21"/>
<wire x1="-1.905" y1="1.27" x2="-0.635" y2="1.27" width="0.1524" layer="21"/>
<wire x1="-0.635" y1="1.27" x2="0" y2="0.635" width="0.1524" layer="21"/>
<wire x1="0" y1="0.635" x2="0" y2="-0.635" width="0.1524" layer="21"/>
<wire x1="0" y1="-0.635" x2="-0.635" y2="-1.27" width="0.1524" layer="21"/>
<wire x1="-0.635" y1="-1.27" x2="-1.905" y2="-1.27" width="0.1524" layer="21"/>
<wire x1="-1.905" y1="-1.27" x2="-2.54" y2="-0.635" width="0.1524" layer="21"/>
<wire x1="0.635" y1="1.27" x2="0" y2="0.635" width="0.1524" layer="21"/>
<wire x1="0" y1="-0.635" x2="0.635" y2="-1.27" width="0.1524" layer="21"/>
<wire x1="1.905" y1="-1.27" x2="0.635" y2="-1.27" width="0.1524" layer="21"/>
<wire x1="-6.985" y1="1.27" x2="-5.715" y2="1.27" width="0.1524" layer="21"/>
<wire x1="-5.715" y1="1.27" x2="-5.08" y2="0.635" width="0.1524" layer="21"/>
<wire x1="-5.08" y1="0.635" x2="-5.08" y2="-0.635" width="0.1524" layer="21"/>
<wire x1="-5.08" y1="-0.635" x2="-5.715" y2="-1.27" width="0.1524" layer="21"/>
<wire x1="-5.08" y1="0.635" x2="-4.445" y2="1.27" width="0.1524" layer="21"/>
<wire x1="-4.445" y1="1.27" x2="-3.175" y2="1.27" width="0.1524" layer="21"/>
<wire x1="-3.175" y1="1.27" x2="-2.54" y2="0.635" width="0.1524" layer="21"/>
<wire x1="-2.54" y1="0.635" x2="-2.54" y2="-0.635" width="0.1524" layer="21"/>
<wire x1="-2.54" y1="-0.635" x2="-3.175" y2="-1.27" width="0.1524" layer="21"/>
<wire x1="-3.175" y1="-1.27" x2="-4.445" y2="-1.27" width="0.1524" layer="21"/>
<wire x1="-4.445" y1="-1.27" x2="-5.08" y2="-0.635" width="0.1524" layer="21"/>
<wire x1="-7.62" y1="0.635" x2="-7.62" y2="-0.635" width="0.1524" layer="21"/>
<wire x1="-6.985" y1="1.27" x2="-7.62" y2="0.635" width="0.1524" layer="21"/>
<wire x1="-7.62" y1="-0.635" x2="-6.985" y2="-1.27" width="0.1524" layer="21"/>
<wire x1="-5.715" y1="-1.27" x2="-6.985" y2="-1.27" width="0.1524" layer="21"/>
<wire x1="5.715" y1="1.27" x2="6.985" y2="1.27" width="0.1524" layer="21"/>
<wire x1="6.985" y1="1.27" x2="7.62" y2="0.635" width="0.1524" layer="21"/>
<wire x1="7.62" y1="0.635" x2="7.62" y2="-0.635" width="0.1524" layer="21"/>
<wire x1="7.62" y1="-0.635" x2="6.985" y2="-1.27" width="0.1524" layer="21"/>
<wire x1="5.715" y1="1.27" x2="5.08" y2="0.635" width="0.1524" layer="21"/>
<wire x1="5.08" y1="-0.635" x2="5.715" y2="-1.27" width="0.1524" layer="21"/>
<wire x1="6.985" y1="-1.27" x2="5.715" y2="-1.27" width="0.1524" layer="21"/>
<pad name="1" x="-6.35" y="0" drill="1.016" shape="long" rot="R90"/>
<pad name="2" x="-3.81" y="0" drill="1.016" shape="long" rot="R90"/>
<pad name="3" x="-1.27" y="0" drill="1.016" shape="long" rot="R90"/>
<pad name="4" x="1.27" y="0" drill="1.016" shape="long" rot="R90"/>
<pad name="5" x="3.81" y="0" drill="1.016" shape="long" rot="R90"/>
<pad name="6" x="6.35" y="0" drill="1.016" shape="long" rot="R90"/>
<text x="-7.6962" y="1.8288" size="1.27" layer="25" ratio="10">&gt;NAME</text>
<text x="-7.62" y="-3.175" size="1.27" layer="27">&gt;VALUE</text>
<rectangle x1="3.556" y1="-0.254" x2="4.064" y2="0.254" layer="51"/>
<rectangle x1="1.016" y1="-0.254" x2="1.524" y2="0.254" layer="51"/>
<rectangle x1="-1.524" y1="-0.254" x2="-1.016" y2="0.254" layer="51"/>
<rectangle x1="-4.064" y1="-0.254" x2="-3.556" y2="0.254" layer="51"/>
<rectangle x1="-6.604" y1="-0.254" x2="-6.096" y2="0.254" layer="51"/>
<rectangle x1="6.096" y1="-0.254" x2="6.604" y2="0.254" layer="51"/>
</package>
</packages>
<packages3d>
<package3d name="1X04" urn="urn:adsk.eagle:package:22407/2" type="model" library_version="3">
<description>PIN HEADER</description>
<packageinstances>
<packageinstance name="1X04"/>
</packageinstances>
</package3d>
<package3d name="1X06" urn="urn:adsk.eagle:package:22472/2" type="model" library_version="3">
<description>PIN HEADER</description>
<packageinstances>
<packageinstance name="1X06"/>
</packageinstances>
</package3d>
</packages3d>
</library>
<library name="jst">
<packages>
<package name="B4B-ZR">
<pad name="1" x="0" y="0" drill="0.7" shape="long" rot="R90"/>
<pad name="2" x="-1.5" y="0" drill="0.7" shape="long" rot="R90"/>
<pad name="3" x="-3" y="0" drill="0.7" shape="long" rot="R90"/>
<pad name="4" x="-4.5" y="0" drill="0.7" shape="long" rot="R90"/>
<wire x1="-6" y1="2.2" x2="-6" y2="-1.3" width="0.127" layer="21"/>
<wire x1="-6" y1="-1.3" x2="1.5" y2="-1.3" width="0.127" layer="21"/>
<wire x1="1.5" y1="-1.3" x2="1.5" y2="2.2" width="0.127" layer="21"/>
<wire x1="1.5" y1="2.2" x2="-6" y2="2.2" width="0.127" layer="21"/>
<text x="8.2" y="-2.54" size="1.27" layer="25" rot="R90">&gt;NAME</text>
<text x="10.74" y="-2.54" size="1.27" layer="27" rot="R90">&gt;VALUE</text>
<wire x1="-0.5" y1="1.75" x2="0" y2="1.25" width="0.127" layer="21"/>
<wire x1="0" y1="1.25" x2="0.5" y2="1.75" width="0.127" layer="21"/>
<wire x1="0.5" y1="1.75" x2="-0.5" y2="1.75" width="0.127" layer="21"/>
</package>
</packages>
</library>
</libraries>
<attributes>
</attributes>
<variantdefs>
</variantdefs>
<classes>
<class number="0" name="default" width="0" drill="0">
</class>
</classes>
<designrules name="oshpark-2layer">
<description language="en">&lt;b&gt;OSH Park Design Rules&lt;/b&gt;
&lt;p&gt;
Please make sure your boards conform to these design rules.
&lt;/p&gt;
&lt;p&gt;
Note, that not all DRC settings must be set by the manufacturer. Several can be adjusted for the design, including those listed on our docs page here. 
&lt;a href=&quot;http://docs.oshpark.com/design-tools/eagle/design-rules-files/&quot;&gt;Adjustable Settings&lt;/a&gt;
&lt;/p&gt;</description>
<param name="layerSetup" value="(1*16)"/>
<param name="mtCopper" value="0.035559375mm 0.0356mm 0.0356mm 0.0356mm 0.0356mm 0.0356mm 0.0356mm 0.0356mm 0.0356mm 0.0356mm 0.0356mm 0.0356mm 0.0356mm 0.0356mm 0.0356mm 0.035559375mm"/>
<param name="mtIsolate" value="1.6mm 0.1499mm 0.2007mm 0.1499mm 0.2007mm 0.1499mm 0.2007mm 0.1499mm 0.2007mm 0.1499mm 0.2007mm 0.1499mm 0.2007mm 0.1499mm 0.2007mm"/>
<param name="mdWireWire" value="6mil"/>
<param name="mdWirePad" value="6mil"/>
<param name="mdWireVia" value="6mil"/>
<param name="mdPadPad" value="6mil"/>
<param name="mdPadVia" value="6mil"/>
<param name="mdViaVia" value="6mil"/>
<param name="mdSmdPad" value="6mil"/>
<param name="mdSmdVia" value="6mil"/>
<param name="mdSmdSmd" value="6mil"/>
<param name="mdViaViaSameLayer" value="8mil"/>
<param name="mnLayersViaInSmd" value="2"/>
<param name="mdCopperDimension" value="15mil"/>
<param name="mdDrill" value="6mil"/>
<param name="mdSmdStop" value="0mil"/>
<param name="msWidth" value="6mil"/>
<param name="msDrill" value="10mil"/>
<param name="msMicroVia" value="10mil"/>
<param name="msBlindViaRatio" value="0.5"/>
<param name="rvPadTop" value="0.25"/>
<param name="rvPadInner" value="0.25"/>
<param name="rvPadBottom" value="0.25"/>
<param name="rvViaOuter" value="0.25"/>
<param name="rvViaInner" value="0.25"/>
<param name="rvMicroViaOuter" value="0.25"/>
<param name="rvMicroViaInner" value="0.25"/>
<param name="rlMinPadTop" value="5mil"/>
<param name="rlMaxPadTop" value="20mil"/>
<param name="rlMinPadInner" value="5mil"/>
<param name="rlMaxPadInner" value="20mil"/>
<param name="rlMinPadBottom" value="5mil"/>
<param name="rlMaxPadBottom" value="20mil"/>
<param name="rlMinViaOuter" value="5mil"/>
<param name="rlMaxViaOuter" value="20mil"/>
<param name="rlMinViaInner" value="5mil"/>
<param name="rlMaxViaInner" value="20mil"/>
<param name="rlMinMicroViaOuter" value="5mil"/>
<param name="rlMaxMicroViaOuter" value="20mil"/>
<param name="rlMinMicroViaInner" value="5mil"/>
<param name="rlMaxMicroViaInner" value="20mil"/>
<param name="psTop" value="-1"/>
<param name="psBottom" value="-1"/>
<param name="psFirst" value="-1"/>
<param name="psElongationLong" value="100"/>
<param name="psElongationOffset" value="100"/>
<param name="mvStopFrame" value="1"/>
<param name="mvCreamFrame" value="0"/>
<param name="mlMinStopFrame" value="2.5mil"/>
<param name="mlMaxStopFrame" value="2.5mil"/>
<param name="mlMinCreamFrame" value="0mil"/>
<param name="mlMaxCreamFrame" value="0mil"/>
<param name="mlViaStopLimit" value="0mil"/>
<param name="srRoundness" value="0"/>
<param name="srMinRoundness" value="0mil"/>
<param name="srMaxRoundness" value="0mil"/>
<param name="slThermalIsolate" value="10mil"/>
<param name="slThermalsForVias" value="0"/>
<param name="dpMaxLengthDifference" value="10mm"/>
<param name="dpGapFactor" value="2.5"/>
<param name="checkAngle" value="0"/>
<param name="checkFont" value="1"/>
<param name="checkRestrict" value="1"/>
<param name="checkStop" value="0"/>
<param name="checkValues" value="0"/>
<param name="checkNames" value="1"/>
<param name="checkWireStubs" value="1"/>
<param name="checkPolygonWidth" value="0"/>
<param name="useDiameter" value="13"/>
<param name="maxErrors" value="50"/>
</designrules>
<autorouter>
<pass name="Default">
<param name="RoutingGrid" value="50mil"/>
<param name="AutoGrid" value="1"/>
<param name="Efforts" value="0"/>
<param name="TopRouterVariant" value="1"/>
<param name="tpViaShape" value="round"/>
<param name="PrefDir.1" value="a"/>
<param name="PrefDir.2" value="0"/>
<param name="PrefDir.3" value="0"/>
<param name="PrefDir.4" value="0"/>
<param name="PrefDir.5" value="0"/>
<param name="PrefDir.6" value="0"/>
<param name="PrefDir.7" value="0"/>
<param name="PrefDir.8" value="0"/>
<param name="PrefDir.9" value="0"/>
<param name="PrefDir.10" value="0"/>
<param name="PrefDir.11" value="0"/>
<param name="PrefDir.12" value="0"/>
<param name="PrefDir.13" value="0"/>
<param name="PrefDir.14" value="0"/>
<param name="PrefDir.15" value="0"/>
<param name="PrefDir.16" value="a"/>
<param name="cfVia" value="8"/>
<param name="cfNonPref" value="5"/>
<param name="cfChangeDir" value="2"/>
<param name="cfOrthStep" value="2"/>
<param name="cfDiagStep" value="3"/>
<param name="cfExtdStep" value="0"/>
<param name="cfBonusStep" value="1"/>
<param name="cfMalusStep" value="1"/>
<param name="cfPadImpact" value="4"/>
<param name="cfSmdImpact" value="4"/>
<param name="cfBusImpact" value="0"/>
<param name="cfHugging" value="3"/>
<param name="cfAvoid" value="4"/>
<param name="cfPolygon" value="10"/>
<param name="cfBase.1" value="0"/>
<param name="cfBase.2" value="1"/>
<param name="cfBase.3" value="1"/>
<param name="cfBase.4" value="1"/>
<param name="cfBase.5" value="1"/>
<param name="cfBase.6" value="1"/>
<param name="cfBase.7" value="1"/>
<param name="cfBase.8" value="1"/>
<param name="cfBase.9" value="1"/>
<param name="cfBase.10" value="1"/>
<param name="cfBase.11" value="1"/>
<param name="cfBase.12" value="1"/>
<param name="cfBase.13" value="1"/>
<param name="cfBase.14" value="1"/>
<param name="cfBase.15" value="1"/>
<param name="cfBase.16" value="0"/>
<param name="mnVias" value="20"/>
<param name="mnSegments" value="9999"/>
<param name="mnExtdSteps" value="9999"/>
<param name="mnRipupLevel" value="10"/>
<param name="mnRipupSteps" value="100"/>
<param name="mnRipupTotal" value="100"/>
</pass>
<pass name="Follow-me" refer="Default" active="yes">
</pass>
<pass name="Busses" refer="Default" active="yes">
<param name="cfNonPref" value="4"/>
<param name="cfBusImpact" value="4"/>
<param name="cfHugging" value="0"/>
<param name="mnVias" value="0"/>
</pass>
<pass name="Route" refer="Default" active="yes">
</pass>
<pass name="Optimize1" refer="Default" active="yes">
<param name="cfVia" value="99"/>
<param name="cfExtdStep" value="10"/>
<param name="cfHugging" value="1"/>
<param name="mnExtdSteps" value="1"/>
<param name="mnRipupLevel" value="0"/>
</pass>
<pass name="Optimize2" refer="Optimize1" active="yes">
<param name="cfNonPref" value="0"/>
<param name="cfChangeDir" value="6"/>
<param name="cfExtdStep" value="0"/>
<param name="cfBonusStep" value="2"/>
<param name="cfMalusStep" value="2"/>
<param name="cfPadImpact" value="2"/>
<param name="cfSmdImpact" value="2"/>
<param name="cfHugging" value="0"/>
</pass>
<pass name="Optimize3" refer="Optimize2" active="yes">
<param name="cfChangeDir" value="8"/>
<param name="cfPadImpact" value="0"/>
<param name="cfSmdImpact" value="0"/>
</pass>
<pass name="Optimize4" refer="Optimize3" active="yes">
<param name="cfChangeDir" value="25"/>
</pass>
</autorouter>
<elements>
<element name="JP1" library="pinhead" library_urn="urn:adsk.eagle:library:325" package="1X04" package3d_urn="urn:adsk.eagle:package:22407/2" value="" x="54.61" y="44.45" smashed="yes">
<attribute name="NAME" x="59.7662" y="42.6212" size="1.27" layer="25" ratio="10" rot="R180"/>
<attribute name="VALUE" x="49.53" y="41.275" size="1.27" layer="27"/>
</element>
<element name="JP2" library="pinhead" library_urn="urn:adsk.eagle:library:325" package="1X06" package3d_urn="urn:adsk.eagle:package:22472/2" value="" x="54.61" y="26.67" smashed="yes">
<attribute name="NAME" x="46.9138" y="28.4988" size="1.27" layer="25" ratio="10"/>
<attribute name="VALUE" x="46.99" y="23.495" size="1.27" layer="27"/>
</element>
<element name="CN1" library="jst" package="B4B-ZR" value="B4B-ZR" x="9.8425" y="5.715" smashed="yes" rot="R180">
<attribute name="NAME" x="11.7475" y="4.445" size="1.27" layer="25" ratio="16" rot="R270"/>
<attribute name="VALUE" x="-5.3975" y="8.255" size="1.27" layer="27" rot="R270"/>
</element>
</elements>
<signals>
<signal name="PS0">
<contactref element="JP1" pad="1"/>
</signal>
<signal name="PS1">
<contactref element="JP1" pad="2"/>
</signal>
<signal name="INT">
<contactref element="JP1" pad="3"/>
</signal>
<signal name="ADR">
<contactref element="JP1" pad="4"/>
</signal>
<signal name="VIN">
<contactref element="JP2" pad="1"/>
<contactref element="CN1" pad="1"/>
<wire x1="48.26" y1="23.495" x2="48.26" y2="26.67" width="0.6096" layer="16"/>
<via x="48.26" y="23.495" extent="1-16" drill="0.35"/>
<wire x1="9.8425" y1="5.715" x2="10.16" y2="5.715" width="0.4064" layer="16"/>
<wire x1="10.16" y1="5.715" x2="10.16" y2="23.495" width="0.6096" layer="16"/>
<via x="10.16" y="23.495" extent="1-16" drill="0.35"/>
<wire x1="48.26" y1="23.495" x2="10.16" y2="23.495" width="0.6096" layer="1"/>
</signal>
<signal name="3VO">
<contactref element="JP2" pad="2"/>
</signal>
<signal name="GND">
<contactref element="JP2" pad="3"/>
<contactref element="CN1" pad="4"/>
<wire x1="53.34" y1="17.78" x2="53.34" y2="26.67" width="0.6096" layer="16"/>
<via x="53.34" y="17.78" extent="1-16" drill="0.35"/>
<wire x1="14.3425" y1="5.715" x2="13.97" y2="5.715" width="0.4064" layer="16"/>
<wire x1="13.97" y1="5.715" x2="13.97" y2="17.78" width="0.6096" layer="16"/>
<wire x1="53.34" y1="17.78" x2="13.97" y2="17.78" width="0.6096" layer="1"/>
<via x="13.97" y="17.78" extent="1-16" drill="0.35"/>
</signal>
<signal name="SDA">
<contactref element="JP2" pad="4"/>
<contactref element="CN1" pad="3"/>
<wire x1="55.88" y1="19.685" x2="55.88" y2="26.67" width="0.6096" layer="16"/>
<via x="55.88" y="19.685" extent="1-16" drill="0.35"/>
<wire x1="12.8425" y1="5.715" x2="12.7" y2="5.715" width="0.4064" layer="16"/>
<wire x1="12.7" y1="5.715" x2="12.7" y2="19.685" width="0.6096" layer="16"/>
<wire x1="55.88" y1="19.685" x2="12.7" y2="19.685" width="0.6096" layer="1"/>
<via x="12.7" y="19.685" extent="1-16" drill="0.35"/>
</signal>
<signal name="SCL">
<contactref element="JP2" pad="5"/>
<contactref element="CN1" pad="2"/>
<wire x1="58.42" y1="21.59" x2="58.42" y2="26.67" width="0.6096" layer="16"/>
<via x="58.42" y="21.59" extent="1-16" drill="0.35"/>
<wire x1="11.3425" y1="5.715" x2="11.43" y2="5.715" width="0.4064" layer="16"/>
<wire x1="11.43" y1="5.715" x2="11.43" y2="21.59" width="0.6096" layer="16"/>
<wire x1="58.42" y1="21.59" x2="11.43" y2="21.59" width="0.6096" layer="1"/>
<via x="11.43" y="21.59" extent="1-16" drill="0.35"/>
</signal>
<signal name="RST">
<contactref element="JP2" pad="6"/>
</signal>
</signals>
<mfgpreviewcolors>
<mfgpreviewcolor name="soldermaskcolor" color="0xC8000000"/>
<mfgpreviewcolor name="silkscreencolor" color="0xFFFEFEFE"/>
<mfgpreviewcolor name="backgroundcolor" color="0xFF282828"/>
<mfgpreviewcolor name="coppercolor" color="0xFFABA7A6"/>
<mfgpreviewcolor name="substratecolor" color="0xFF786E46"/>
</mfgpreviewcolors>
</board>
</drawing>
<compatibility>
<note version="8.2" severity="warning">
Since Version 8.2, EAGLE supports online libraries. The ids
of those online libraries will not be understood (or retained)
with this version.
</note>
<note version="8.3" severity="warning">
Since Version 8.3, EAGLE supports URNs for individual library
assets (packages, symbols, and devices). The URNs of those assets
will not be understood (or retained) with this version.
</note>
<note version="8.3" severity="warning">
Since Version 8.3, EAGLE supports the association of 3D packages
with devices in libraries, schematics, and board files. Those 3D
packages will not be understood (or retained) with this version.
</note>
<note version="8.5" severity="warning">
Since Version 8.5, EAGLE supports locking for holes, vias, wires and polygons. 
The locking property on all objects of these types will not be understood in this version. 
</note>
</compatibility>
</eagle>
