1.000000, 0.000000, 0.145209, 0.000000,
0.000000, 0.000000, -0.145209, 0.000000,
0.000000, 1.000000, 0.000000, 0.000000,
0.000000, 0.000000, -0.452090, 0.000000,
0.000000, 0.000000, 1.452090, 0.000000,
0.000000, 0.000000, 0.000000, 1.000000,
